/* XPM */
static char * afterstep_32x32_xpm[] = {
"32 32 128 2",
"  	c None",
". 	c #6C6A6C",
"+ 	c #545254",
"@ 	c #4C2E2C",
"# 	c #A44244",
"$ 	c #8C3C3C",
"% 	c #342E2E",
"& 	c #3C3D3C",
"* 	c #8C8E8C",
"= 	c #843B3C",
"- 	c #AC4344",
"; 	c #6C3634",
"> 	c #2C2A2C",
", 	c #2C2E2C",
"' 	c #2C2E34",
") 	c #CC4A48",
"! 	c #B44A49",
"~ 	c #7C3A3C",
"{ 	c #343233",
"] 	c #342A2C",
"^ 	c #944244",
"/ 	c #DC4E4C",
"( 	c #E44A4C",
"_ 	c #543230",
": 	c #848284",
"< 	c #5C3634",
"[ 	c #F45254",
"} 	c #D44D4C",
"| 	c #646631",
"1 	c #B4B641",
"2 	c #949240",
"3 	c #5C5C34",
"4 	c #9C9A9C",
"5 	c #444644",
"6 	c #4C4A30",
"7 	c #ECEE48",
"8 	c #ECEA4C",
"9 	c #DCE254",
"0 	c #F4F64A",
"a 	c #F4FA4A",
"b 	c #FCF64C",
"c 	c #CCD248",
"d 	c #949638",
"e 	c #343224",
"f 	c #3C323C",
"g 	c #946AB4",
"h 	c #443A4C",
"i 	c #44462C",
"j 	c #343620",
"k 	c #7C7A3C",
"l 	c #E4E64C",
"m 	c #ACAA3C",
"n 	c #84629C",
"o 	c #845E9C",
"p 	c #44364C",
"q 	c #3C3E34",
"r 	c #3C3A2C",
"s 	c #545230",
"t 	c #545A34",
"u 	c #9C9E40",
"v 	c #343634",
"w 	c #544261",
"x 	c #AC7ACE",
"y 	c #B47AD8",
"z 	c #BC7ADD",
"A 	c #444244",
"B 	c #C4C344",
"C 	c #2C322F",
"D 	c #2C362C",
"E 	c #B47ED9",
"F 	c #3C363C",
"G 	c #345234",
"H 	c #44AE54",
"I 	c #4CCA54",
"J 	c #54CE5C",
"K 	c #4CDA58",
"L 	c #345634",
"M 	c #AC76CF",
"N 	c #2C323C",
"O 	c #4CD65C",
"P 	c #4CD25C",
"Q 	c #44DA54",
"R 	c #449A4C",
"S 	c #343E6C",
"T 	c #5462F2",
"U 	c #545EF0",
"V 	c #444AA4",
"W 	c #545AD8",
"X 	c #4CC154",
"Y 	c #343E34",
"Z 	c #444EAC",
"` 	c #2C462C",
" .	c #343A30",
"..	c #3C4664",
"+.	c #444A84",
"@.	c #5C6AF4",
"#.	c #6466F4",
"$.	c #3C405C",
"%.	c #343A3C",
"&.	c #2C3A34",
"*.	c #447E44",
"=.	c #54D65A",
"-.	c #646EF8",
";.	c #6472F4",
">.	c #6466DC",
",.	c #444664",
"'.	c #449648",
").	c #3C6E3C",
"!.	c #344A34",
"~.	c #5C5C5C",
"{.	c #646666",
"].	c #646A8C",
"^.	c #7C82FC",
"/.	c #7482FC",
"(.	c #545680",
"_.	c #4C4A4C",
":.	c #34323C",
"<.	c #6C726C",
"[.	c #747674",
"}.	c #7C7674",
"|.	c #848AF4",
"1.	c #7C86F4",
"2.	c #5C5A6C",
"3.	c #8C8A8C",
"4.	c #949694",
"5.	c #746E74",
"6.	c #747271",
"7.	c #747A74",
"                                                                ",
"                                      .                         ",
"                                + @ # $ % &                     ",
"                            * & = - ; > > >                     ",
"                        > > , ' ) ) ) ! ! ~ > {                 ",
"                    + > > , , ] ^ / / ( _ , , ,                 ",
"              : , > , , % , , , ! < [ [ [ } ' % , {             ",
"            { > | 1 2 3 , > % ' ] ] # [ [ [ @ , , ,             ",
"    4 5 , , > 6 7 8 9 0 a b c d e , , , - _ , , , f g h         ",
"  * , > > > , i a 0 j k a a 0 a l m { ] ' ] , ' h n o p         ",
"  q , > > , , r 0 b , s l 1 t u k v , , ' % w x y z , % > ,     ",
"  A & , , , , e a b B 9 6 , , , , % % C D > ' w z E w , , '     ",
"  A & F , , , % a b j , ' % , , G H I J K K L , w x y M , , , % ",
"  & & & & % , , 0 a v N ' , , ] O P D D P Q R ' ' w z y w , > > ",
"  & & F & & , , % S T U V W C C O O X J Y , O Q > , F % > , { { ",
"  A & & & & & % , { U T U Z { , K O X ` , % O K % , , , , { { v ",
"  A & F & F & &  .& ..+.@.#.$.%.&.*.K =.O P ` ' , , { v v f { v ",
"  & & & & & & & & A 5 5 -.;.>.,.& %.*.'.).!.{ , { { v v v v v v ",
"  A & & & & & & & & ~.. {.].^./.(._.& & v { v { v :.v v v F v v ",
"  & & F & F & F & & A <.[.}.|.1.2.+ _.A v v v v F v f v v { { v ",
"    & & & & & & & & & & 3.4.* 3.{.5 v F v v v v v v { v F { f v ",
"    5 & & & & & & F & & A * 4.5.{ { v v F { f v v { v v v v v v ",
"        & F & F & & & & & & v { v { v v v :.{ v v { v v v F v F ",
"        _.& & & & & & & & & v v v v { F v F v v v v { v v { { v ",
"            & F & & & & & & v v F v { v v v v v v v f v v { { 5 ",
"            _.& & & & & & & F v v { F v v { { v v { v v v v     ",
"                & & & F & & v v v { v v v F v { f v & :         ",
"                _.& & & & & v v v v { F v v F v v 5             ",
"                    & & & & v v v v { v v v 6.                  ",
"                    _.& & & v F v { v v F 7.                    ",
"                        & & v { f v                             ",
"                        + & v v +                               "};
