/* XPM */
static char *aisleriot_16x16[] = {
/* width height num_colors chars_per_pixel */
"    16    16       36            1",
/* colors */
". c #000000",
"# c #2b404e",
"a c #466072",
"b c #466a82",
"c c #506776",
"d c #607c8f",
"e c #65404e",
"f c #6e8ea3",
"g c #7a9cb4",
"h c #7c7c78",
"i c #84aac4",
"j c #9b8c00",
"k c #9b9b9b",
"l c #a09cc0",
"m c #aa6776",
"n c #adadaa",
"o c #b0a880",
"p c #b0b0b0",
"q c #b291b2",
"r c #bcbcb6",
"s c #c30000",
"t c #c3b000",
"u c #c3bc9b",
"v c #d4ca9b",
"w c #d4d1c3",
"x c #dbdbd5",
"y c #dcd9c7",
"z c #e3cd00",
"A c #e3e3e3",
"B c #ef9b9b",
"C c #f6f5ef",
"D c #f7d4d4",
"E c #fefbf8",
"F c #fff7f7",
"G c #fffcfb",
"H c #ffffff",
/* pixels */
"................",
"....pHHHHHHH....",
"....DHHHHHHHH...",
"....HGHytHHHH...",
"....EHwrhAHHH...",
"....HHjnp.oHH...",
"....HHi#lagHH...",
"....HHidegfHH...",
"....HHmgcciHH...",
"....HHs#qbfHH...",
"....HHA.kkvHH...",
"....HHHuxCHFH...",
"....HHHHzrHHH...",
"....HHHHHHHBH...",
".....HHHHHHH....",
"................"
};
