/* XPM */
static char * applications2_16x16_xpm[] = {
"16 16 92 2",
"  	c None",
". 	c #ABADD7",
"+ 	c #A5A6D3",
"@ 	c #9596CB",
"# 	c #9B9992",
"$ 	c #ACADCC",
"% 	c #898BC6",
"& 	c #8486C3",
"* 	c #888AC5",
"= 	c #A8A9D3",
"- 	c #B9B7B1",
"; 	c #9797BA",
"> 	c #807F7A",
", 	c #5A5956",
"' 	c #6B6A7A",
") 	c #8183BC",
"! 	c #A19FB2",
"~ 	c #986358",
"{ 	c #6E6B70",
"] 	c #666570",
"^ 	c #7C7A80",
"/ 	c #908F8B",
"( 	c #7E7D7B",
"_ 	c #4F4F52",
": 	c #908A8A",
"< 	c #B9A775",
"[ 	c #4D4D67",
"} 	c #A8AAD4",
"| 	c #838089",
"1 	c #8D8A85",
"2 	c #BAB7B1",
"3 	c #95938D",
"4 	c #ADACA8",
"5 	c #A4A3A2",
"6 	c #96948D",
"7 	c #DACB9C",
"8 	c #777784",
"9 	c #54557B",
"0 	c #55577C",
"a 	c #A9AAD5",
"b 	c #9EA0CF",
"c 	c #787680",
"d 	c #CAC6BE",
"e 	c #BAB5AB",
"f 	c #C9C5BE",
"g 	c #D1CEC7",
"h 	c #87847D",
"i 	c #53557C",
"j 	c #7A7CB3",
"k 	c #9A9BCE",
"l 	c #888AC4",
"m 	c #73717E",
"n 	c #B7C59D",
"o 	c #6C9B2E",
"p 	c #9AAA85",
"q 	c #4A4B71",
"r 	c #7274AD",
"s 	c #6B6DA4",
"t 	c #7678B3",
"u 	c #7779B7",
"v 	c #716F7C",
"w 	c #BFBDB9",
"x 	c #9C9C9C",
"y 	c #999999",
"z 	c #404162",
"A 	c #575986",
"B 	c #434467",
"C 	c #5C5E8E",
"D 	c #636598",
"E 	c #6A6873",
"F 	c #33344F",
"G 	c #373854",
"H 	c #5C5A61",
"I 	c #1F2030",
"J 	c #3B3C5A",
"K 	c #A39F99",
"L 	c #65635E",
"M 	c #0A0B10",
"N 	c #212233",
"O 	c #222335",
"P 	c #232335",
"Q 	c #252538",
"R 	c #242538",
"S 	c #1E1E2D",
"T 	c #12121C",
"U 	c #050508",
"V 	c #292A3F",
"W 	c #494A70",
"X 	c #414263",
"Y 	c #292A40",
"Z 	c #13131E",
"` 	c #45466A",
"                                ",
"            . + @               ",
"          # $ % & *             ",
"        = - ; > , ' ) ! ~       ",
"      { ] # ^ / ( _ : < [       ",
"    } | 1 2 3 4 5 6 7 8 9 0     ",
"  a b c d e f g g f e h i j     ",
"  k l m d e n o o p e h q r s   ",
"  t u v d e w x x y e h z A B   ",
"  C D E d e e e e e e h F G     ",
"      H d e e e e e e h I       ",
"      J K h h h h h h L M       ",
"        N O P Q R S T U         ",
"          V z W X Y Z           ",
"              ` G               ",
"                                "};
