/* XPM */
static char * calc_16x16_xpm[] = {
"16 16 151 2",
"  	c None",
". 	c #DFDBCF",
"+ 	c #D1CDC1",
"@ 	c #D4CFC2",
"# 	c #A7AEA1",
"$ 	c #6D8272",
"% 	c #889587",
"& 	c #99A194",
"* 	c #A6A99D",
"= 	c #BAB7AB",
"- 	c #BCB8AC",
"; 	c #DCD8CC",
"> 	c #929E8F",
", 	c #889D8B",
"' 	c #768E7D",
") 	c #6C8272",
"! 	c #607465",
"~ 	c #57695B",
"{ 	c #59665A",
"] 	c #6D766B",
"^ 	c #A8A69B",
"/ 	c #78756D",
"( 	c #D3CFC2",
"_ 	c #E2DFD8",
": 	c #A4A49C",
"< 	c #AFACA1",
"[ 	c #B8B6AA",
"} 	c #AEB0A4",
"| 	c #A1A799",
"1 	c #8D968A",
"2 	c #7A8579",
"3 	c #707C71",
"4 	c #9D9D92",
"5 	c #6C6A62",
"6 	c #E1DED3",
"7 	c #ACB0A9",
"8 	c #697873",
"9 	c #AAA9A3",
"0 	c #B7B3A8",
"a 	c #9C9A94",
"b 	c #A19E94",
"c 	c #95938A",
"d 	c #9D9C92",
"e 	c #A4A398",
"f 	c #A5A297",
"g 	c #64625B",
"h 	c #DAD6CA",
"i 	c #DDDDD6",
"j 	c #919D96",
"k 	c #838B86",
"l 	c #B5B2AA",
"m 	c #8F8C83",
"n 	c #95938D",
"o 	c #969288",
"p 	c #767772",
"q 	c #7A8680",
"r 	c #81857E",
"s 	c #99968D",
"t 	c #57554F",
"u 	c #E3DFD5",
"v 	c #B3BAB3",
"w 	c #6D7B76",
"x 	c #979894",
"y 	c #A29E94",
"z 	c #8F8C85",
"A 	c #B1AFA6",
"B 	c #A39F94",
"C 	c #85837E",
"D 	c #85867D",
"E 	c #6A6A64",
"F 	c #8C8980",
"G 	c #63605A",
"H 	c #D1CCC0",
"I 	c #D6D7D0",
"J 	c #73817C",
"K 	c #656F6B",
"L 	c #ADABA3",
"M 	c #AFAB9F",
"N 	c #A7A49E",
"O 	c #A6A298",
"P 	c #85827A",
"Q 	c #817F79",
"R 	c #8D8A80",
"S 	c #7D7A72",
"T 	c #8A877D",
"U 	c #5C5953",
"V 	c #E1DED6",
"W 	c #A9B0A9",
"X 	c #7C8D87",
"Y 	c #A8AAA4",
"Z 	c #B6B2A6",
"` 	c #918E85",
" .	c #979590",
"..	c #8F8B82",
"+.	c #827F78",
"@.	c #A29F97",
"#.	c #A19D92",
"$.	c #7B7870",
"%.	c #87847B",
"&.	c #54524D",
"*.	c #D3CEC2",
"=.	c #D0CCC1",
"-.	c #A7A69B",
";.	c #919288",
">.	c #A2A097",
",.	c #A29E93",
"'.	c #96948B",
").	c #B4B0A7",
"!.	c #ADA99D",
"~.	c #7F7D76",
"{.	c #A2A09A",
"].	c #95938B",
"^.	c #727068",
"/.	c #827F76",
"(.	c #4B4944",
"_.	c #9E9A90",
":.	c #ABA79B",
"<.	c #B3AFA3",
"[.	c #B7B3A6",
"}.	c #BAB6A9",
"|.	c #B2AEA2",
"1.	c #A5A196",
"2.	c #99968C",
"3.	c #8B877E",
"4.	c #828079",
"5.	c #A09E98",
"6.	c #B1AFAA",
"7.	c #86847D",
"8.	c #44423D",
"9.	c #55544E",
"0.	c #4D4B46",
"a.	c #6F6D65",
"b.	c #88857C",
"c.	c #959187",
"d.	c #9C988E",
"e.	c #A19E93",
"f.	c #A09C92",
"g.	c #9B978D",
"h.	c #7F7C73",
"i.	c #726F67",
"j.	c #353430",
"k.	c #2E2D2A",
"l.	c #34332F",
"m.	c #514E49",
"n.	c #605D57",
"o.	c #706E66",
"p.	c #858279",
"q.	c #65635C",
"r.	c #2B2A27",
"s.	c #22211E",
"t.	c #302E2B",
"                                ",
"            . +                 ",
"          @ # $ % & * = -       ",
"          ; > , ' ) ! ~ { ] ^ / ",
"        ( _ : < [ } | 1 2 3 4 5 ",
"        6 7 8 9 0 a b c d e f g ",
"      h i j k l m n o p q r s t ",
"      u v w x y z A B C D E F G ",
"    H I J K L M N O P Q R S T U ",
"    V W X Y Z `  ...+.@.#.$.%.&.",
"  *.=.-.;.>.,.'.).!.~.{.].^./.(.",
"  _.:.<.[.}.|.1.2.3.4.5.6.7.$.8.",
"      9.0.a.b.c.d.e.f.g.m h.i.j.",
"              k.l.m.n.o.S p.q.r.",
"                        s.t.j.  ",
"                                "};
