/* XPM */
static char * chromium_32x32_xpm[] = {
"32 32 375 2",
"  	c None",
". 	c #17161C",
"+ 	c #1B1A20",
"@ 	c #282731",
"# 	c #302D37",
"$ 	c #35333C",
"% 	c #36333E",
"& 	c #3C3B45",
"* 	c #3C3B46",
"= 	c #23222A",
"- 	c #41414C",
"; 	c #42414C",
"> 	c #28262F",
", 	c #232329",
"' 	c #464650",
") 	c #45444F",
"! 	c #26242C",
"~ 	c #2B2B33",
"{ 	c #484853",
"] 	c #474651",
"^ 	c #302E38",
"/ 	c #1D1A21",
"( 	c #32313B",
"_ 	c #464550",
": 	c #35333E",
"< 	c #17151A",
"[ 	c #201F35",
"} 	c #23214E",
"| 	c #282556",
"1 	c #221F3D",
"2 	c #161520",
"3 	c #151419",
"4 	c #0D0C45",
"5 	c #0E0A6B",
"6 	c #120C74",
"7 	c #0C0959",
"8 	c #12112A",
"9 	c #26242E",
"0 	c #212027",
"a 	c #201E26",
"b 	c #0C0B4C",
"c 	c #080662",
"d 	c #11097F",
"e 	c #0A0766",
"f 	c #1A1936",
"g 	c #1B1A28",
"h 	c #2A2933",
"i 	c #1F1E26",
"j 	c #1E1D23",
"k 	c #24232B",
"l 	c #0D0C4B",
"m 	c #06055C",
"n 	c #0C0867",
"o 	c #262446",
"p 	c #2C273C",
"q 	c #302F3A",
"r 	c #2C2B35",
"s 	c #2B2A34",
"t 	c #101044",
"u 	c #0C0967",
"v 	c #2A2846",
"w 	c #3B3854",
"x 	c #353248",
"y 	c #2E2C38",
"z 	c #333242",
"A 	c #38374F",
"B 	c #302F3D",
"C 	c #2C2B34",
"D 	c #17154D",
"E 	c #0B0769",
"F 	c #110980",
"G 	c #100B72",
"H 	c #353342",
"I 	c #45415D",
"J 	c #564E65",
"K 	c #3D3B49",
"L 	c #323140",
"M 	c #3D3C57",
"N 	c #2F2E3D",
"O 	c #2F2E38",
"P 	c #1D1A55",
"Q 	c #0A0765",
"R 	c #1F147D",
"S 	c #423F54",
"T 	c #403E50",
"U 	c #625B7D",
"V 	c #4A4758",
"W 	c #2A2831",
"X 	c #1A191E",
"Y 	c #363447",
"Z 	c #3D3D4B",
"` 	c #28263F",
" .	c #34313E",
"..	c #23224C",
"+.	c #0E0972",
"@.	c #120A81",
"#.	c #271E7A",
"$.	c #4E4B5B",
"%.	c #3D3C49",
"&.	c #5E5978",
"*.	c #5C5571",
"=.	c #383442",
"-.	c #2B2937",
";.	c #393751",
">.	c #323145",
",.	c #26252E",
"'.	c #35323C",
").	c #2D2A4E",
"!.	c #130C76",
"~.	c #251192",
"{.	c #413876",
"].	c #635972",
"^.	c #3D394E",
"/.	c #2D2B44",
"(.	c #514C6B",
"_.	c #5E577C",
":.	c #343044",
"<.	c #1F1D25",
"[.	c #343140",
"}.	c #302E3C",
"|.	c #2E2934",
"1.	c #35303D",
"2.	c #3D3743",
"3.	c #3A3554",
"4.	c #1C1379",
"5.	c #2A1691",
"6.	c #59497C",
"7.	c #6F6278",
"8.	c #504B59",
"9.	c #3E3B4E",
"0.	c #474461",
"a.	c #796DA4",
"b.	c #524C6F",
"c.	c #302B39",
"d.	c #403851",
"e.	c #352A37",
"f.	c #392B32",
"g.	c #5F4E58",
"h.	c #5B464F",
"i.	c #423653",
"j.	c #2C1781",
"k.	c #331996",
"l.	c #5A498C",
"m.	c #7B6679",
"n.	c #6F6075",
"o.	c #7D6B83",
"p.	c #655A78",
"q.	c #937FB7",
"r.	c #8877B2",
"s.	c #464165",
"t.	c #2A2129",
"u.	c #443950",
"v.	c #523E5B",
"w.	c #442A36",
"x.	c #4B2F36",
"y.	c #987379",
"z.	c #7C5761",
"A.	c #412865",
"B.	c #2A1091",
"C.	c #2F1193",
"D.	c #412C8D",
"E.	c #897091",
"F.	c #856D7E",
"G.	c #9A7C92",
"H.	c #76688A",
"I.	c #A78FCA",
"J.	c #A08ACA",
"K.	c #746695",
"L.	c #3B3647",
"M.	c #342228",
"N.	c #44313F",
"O.	c #5D4556",
"P.	c #63455B",
"Q.	c #4E303F",
"R.	c #553540",
"S.	c #A77E95",
"T.	c #906574",
"U.	c #5A3388",
"V.	c #361193",
"W.	c #3F1191",
"X.	c #5D30A4",
"Y.	c #AF859E",
"Z.	c #9A7585",
"`.	c #AD88A3",
" +	c #836E93",
".+	c #B79EE0",
"++	c #BCA3E6",
"@+	c #A48DC4",
"#+	c #6D5A84",
"$+	c #2E1718",
"%+	c #402931",
"&+	c #543949",
"*+	c #67485E",
"=+	c #6C4652",
"-+	c #5C3131",
";+	c #5B383E",
">+	c #B8868E",
",+	c #A17072",
"'+	c #734187",
")+	c #451697",
"!+	c #4F1989",
"~+	c #6536A0",
"{+	c #C292A3",
"]+	c #B07F8A",
"^+	c #C095AB",
"/+	c #967595",
"(+	c #C8AAEA",
"_+	c #DAB4F0",
":+	c #BEA2E4",
"<+	c #A182BD",
"[+	c #4F384A",
"}+	c #452629",
"|+	c #543747",
"1+	c #68455B",
"2+	c #764E64",
"3+	c #7E4E66",
"4+	c #6C3C37",
"5+	c #70423D",
"6+	c #C6918F",
"7+	c #B17D7A",
"8+	c #875586",
"9+	c #5822A5",
"0+	c #612387",
"a+	c #804D9F",
"b+	c #DCABB8",
"c+	c #C5919A",
"d+	c #D6A4B8",
"e+	c #B0849F",
"f+	c #E9BFF2",
"g+	c #EEC2F3",
"h+	c #DCB5F3",
"i+	c #D0A9F1",
"j+	c #8E6685",
"k+	c #4B2D37",
"l+	c #462827",
"m+	c #5C383D",
"n+	c #67455A",
"o+	c #795060",
"p+	c #8A5B69",
"q+	c #895768",
"r+	c #734344",
"s+	c #774844",
"t+	c #CD979B",
"u+	c #BC8680",
"v+	c #A36CA4",
"w+	c #6A32A0",
"x+	c #682C87",
"y+	c #965E9F",
"z+	c #EABDC5",
"A+	c #D6A2AD",
"B+	c #E1B3C5",
"C+	c #C491AB",
"D+	c #F5C6F4",
"E+	c #F7CEF3",
"F+	c #F2C4F2",
"G+	c #EAC0F2",
"H+	c #B28AB0",
"I+	c #764C5A",
"J+	c #351C1F",
"K+	c #522E34",
"L+	c #623E4B",
"M+	c #714B5A",
"N+	c #805664",
"O+	c #94666E",
"P+	c #996670",
"Q+	c #88534D",
"R+	c #8A5645",
"S+	c #DAA9A7",
"T+	c #D09C95",
"U+	c #CA91C4",
"V+	c #9055B2",
"W+	c #864D9D",
"X+	c #B481B8",
"Y+	c #F6D9E1",
"Z+	c #E6B8BE",
"`+	c #ECC6CD",
" @	c #D6A5AA",
".@	c #FCE0F7",
"+@	c #FCE4F4",
"@@	c #F3D0E2",
"#@	c #EBC2DE",
"$@	c #D19DC6",
"%@	c #A67D9E",
"&@	c #593945",
"*@	c #542C33",
"=@	c #58313A",
"-@	c #5F3940",
";@	c #684145",
">@	c #9A696F",
",@	c #B78290",
"'@	c #9E6B72",
")@	c #9C685C",
"!@	c #E7BFC3",
"~@	c #E6B7BE",
"{@	c #E5BFE3",
"]@	c #B075CC",
"^@	c #A566C3",
"/@	c #D4A2D5",
"(@	c #FCEEF3",
"_@	c #F2D1D5",
":@	c #F2D7DD",
"<@	c #DEB0B4",
"[@	c #FDEAFA",
"}@	c #F9E4EA",
"|@	c #BD9B9A",
"1@	c #B38B92",
"2@	c #A1728C",
"3@	c #846079",
"4@	c #56374A",
"5@	c #724035",
"6@	c #A16E6D",
"7@	c #C58F99",
"8@	c #AF7B76",
"9@	c #BB867E",
"0@	c #F7E1E9",
"a@	c #FCE2F0",
"b@	c #FAEAF8",
"c@	c #E2ACF6",
"d@	c #D897F5",
"e@	c #F1CAF5",
"f@	c #FEF7FB",
"g@	c #FCE9F1",
"h@	c #F7E3EA",
"i@	c #D7ACA9",
"j@	c #DBBCBE",
"k@	c #D5B2B4",
"l@	c #956D6D",
"m@	c #C99795",
"n@	c #FAEAEF",
"o@	c #FEEBF9",
"p@	c #FEF2FB",
"q@	c #F5CAF7",
"r@	c #F0B4F9",
"s@	c #F9D2F5",
"t@	c #FEECFB",
"u@	c #FEEAF9",
"v@	c #F7E7EC",
"w@	c #CBA39A",
"x@	c #9D7D85",
"y@	c #8F7074",
"z@	c #D09EA3",
"A@	c #FBEDF6",
"B@	c #FEEDF8",
"C@	c #F9D3F4",
"D@	c #FBD4F5",
"E@	c #F9CDF3",
"F@	c #F5C4F0",
"G@	c #EDBADD",
"H@	c #F9DEEA",
"I@	c #F7E7ED",
"J@	c #D6ABAA",
"K@	c #C6918B",
"L@	c #F9EAEE",
"M@	c #FEEEF8",
"N@	c #F9CEF2",
"O@	c #FCD7F4",
"P@	c #E1ACB9",
"Q@	c #F6DAE4",
"R@	c #F6E2E8",
"S@	c #CDA197",
"T@	c #A47066",
"U@	c #E6C5CD",
"V@	c #EDC6DB",
"W@	c #E8B5CA",
"X@	c #C99490",
"Y@	c #DCB0AB",
"Z@	c #DBB4AF",
"`@	c #AD7B6B",
" #	c #814D38",
".#	c #A47166",
"+#	c #BE897E",
"@#	c #CE989C",
"##	c #AF7B69",
"$#	c #A3715F",
"%#	c #996751",
"                              . +                               ",
"                              @ #                               ",
"                              $ %                               ",
"                              & *                               ",
"                            = - ; >                             ",
"                            , ' ) !                             ",
"                            ~ { ] ^                             ",
"                          / ( ] _ : /                           ",
"                          < [ } | 1 2                           ",
"                          3 4 5 6 7 8                           ",
"                    9 0   a b c d e f g   0                     ",
"                    h i j k l m d n o p j @                     ",
"                    q r r s t m d u v w x y                     ",
"                    z A B C D E F G H I J K                     ",
"                    L M N O P Q F R S T U V W                   ",
"                  X Y Z `  ...+.@.#.$.%.&.*.=.                  ",
"                  -.;.>.,.'.).!.~.{.].^./.(._.:.                ",
"                <.[.}.|.1.2.3.4.5.6.7.8.9.0.a.b.                ",
"                c.d.e.f.g.h.i.j.k.l.m.n.o.p.q.r.s.              ",
"              t.u.v.w.x.y.z.A.B.C.D.E.F.G.H.I.J.K.L.            ",
"            M.N.O.P.Q.R.S.T.U.V.W.X.Y.Z.`. +.+++@+#+            ",
"          $+%+&+*+=+-+;+>+,+'+)+!+~+{+]+^+/+(+_+:+<+[+          ",
"          }+|+1+2+3+4+5+6+7+8+9+0+a+b+c+d+e+f+g+h+i+j+k+        ",
"        l+m+n+o+p+q+r+s+t+u+v+w+x+y+z+A+B+C+D+E+F+G+H+I+J+      ",
"        K+L+M+N+O+P+Q+R+S+T+U+V+W+X+Y+Z+`+ @.@+@@@#@$@%@&@      ",
"        *@=@-@;@>@,@'@)@!@~@{@]@^@/@(@_@:@<@[@}@|@1@2@3@4@      ",
"              5@6@7@8@9@0@a@b@c@d@e@f@g@h@i@j@k@l@              ",
"                      m@n@o@p@q@r@s@t@u@v@w@x@y@                ",
"                      z@A@B@C@D@E@F@G@H@I@J@                    ",
"                      K@L@M@N@O@    P@Q@R@S@                    ",
"                      T@U@V@W@      X@Y@Z@`@                    ",
"                       #.#+#@#      ##$#%#                      "};
