/* XPM */
static char * communicator_mail_16x16_xpm[] = {
"16 16 75 1",
" 	c None",
".	c #0040C0",
"+	c #7090D0",
"@	c #FF0000",
"#	c #004040",
"$	c #004080",
"%	c #204080",
"&	c #802060",
"*	c #A0A0E0",
"=	c #BFBFFF",
"-	c #EFEFEF",
";	c #E0E0E0",
">	c #6060E0",
",	c #6080C0",
"'	c #305090",
")	c #404080",
"!	c #705090",
"~	c #7070EF",
"{	c #B0B0EF",
"]	c #C0C0C0",
"^	c #D0D0D0",
"/	c #E0A0A0",
"(	c #A08080",
"_	c #305050",
":	c #404040",
"<	c #002060",
"[	c #804080",
"}	c #FFFFFF",
"|	c #B0B0B0",
"1	c #A0C0C0",
"2	c #303030",
"3	c #A0A0A0",
"4	c #2040C0",
"5	c #202020",
"6	c #EF7070",
"7	c #EFB0B0",
"8	c #703070",
"9	c #707070",
"0	c #402020",
"a	c #9090D0",
"b	c #8080FF",
"c	c #C08080",
"d	c #D09050",
"e	c #EFEF70",
"f	c #FFFF80",
"g	c #FFFFBF",
"h	c #303070",
"i	c #DFDFDF",
"j	c #FF8040",
"k	c #A02020",
"l	c #555555",
"m	c #404060",
"n	c #FF8080",
"o	c #909090",
"p	c #A06060",
"q	c #8080BF",
"r	c #E0E0A0",
"s	c #EFEFB0",
"t	c #909050",
"u	c #B0B070",
"v	c #000055",
"w	c #406060",
"x	c #EFB070",
"y	c #FFBF80",
"z	c #C04040",
"A	c #505050",
"B	c #808080",
"C	c #202060",
"D	c #606060",
"E	c #204060",
"F	c #404020",
"G	c #B07070",
"H	c #EF7030",
"I	c #608060",
"J	c #6060A0",
"....+@+#$$.....%",
"..&*=-;>,'##..) ",
"!~{-;;]-^/(_#): ",
"<[{}-];|];^1>2|3",
"4536^6||]3]};789",
".40a{-}bcdefg^h ",
"!b=---i--*{j^kl ",
"<[=--i-|3;;;>ml ",
"453n}}]3;o|;;/p9",
".459qfrstuefs;{v",
"...w9xyferrs;zAB",
"....CDaqg-;*EFB ",
"...)  wGHr6IBB  ",
"..)    BJaD9B   ",
".)      BAoB    ",
"%        BB     "};
