/* XPM */
static char * daemon_32x32_xpm[] = {
"32 32 248 2",
"  	c None",
". 	c #490E02",
"+ 	c #881A02",
"@ 	c #6B1402",
"# 	c #861A02",
"$ 	c #6E1502",
"% 	c #881B02",
"& 	c #771602",
"* 	c #9A1E02",
"= 	c #821802",
"- 	c #7D1802",
"; 	c #631302",
"> 	c #6D1502",
", 	c #6C1402",
"' 	c #761602",
") 	c #691402",
"! 	c #3C0C02",
"~ 	c #621302",
"{ 	c #9E1F02",
"] 	c #961E02",
"^ 	c #681402",
"/ 	c #801802",
"( 	c #9C1E02",
"_ 	c #661302",
": 	c #721502",
"< 	c #7D1902",
"[ 	c #8E1C02",
"} 	c #A82102",
"| 	c #9E2105",
"1 	c #8C1D04",
"2 	c #8A1B02",
"3 	c #AB2102",
"4 	c #781602",
"5 	c #961D02",
"6 	c #A62002",
"7 	c #A12002",
"8 	c #8E1B02",
"9 	c #851A02",
"0 	c #942810",
"a 	c #975445",
"b 	c #9D290F",
"c 	c #965445",
"d 	c #A27267",
"e 	c #871B02",
"f 	c #971D02",
"g 	c #561102",
"h 	c #751602",
"i 	c #8F1B02",
"j 	c #851902",
"k 	c #8B1A02",
"l 	c #9D2A0F",
"m 	c #C8B2AD",
"n 	c #FEFEFE",
"o 	c #BFB0AD",
"p 	c #914A3A",
"q 	c #E0DCDB",
"r 	c #99665B",
"s 	c #681705",
"t 	c #641302",
"u 	c #791702",
"v 	c #A43F28",
"w 	c #DAD3D1",
"x 	c #FFFFFF",
"y 	c #FCFCFC",
"z 	c #8C6A63",
"A 	c #C8B7B3",
"B 	c #B5ADAB",
"C 	c #833A29",
"D 	c #601202",
"E 	c #A52002",
"F 	c #A5432D",
"G 	c #DBD6D5",
"H 	c #FDFDFD",
"I 	c #8D8D8D",
"J 	c #615855",
"K 	c #5F4F4C",
"L 	c #333333",
"M 	c #5D3830",
"N 	c #5B1102",
"O 	c #841902",
"P 	c #A92102",
"Q 	c #A0361E",
"R 	c #D6C9C6",
"S 	c #F1F1F1",
"T 	c #494949",
"U 	c #3A3837",
"V 	c #4A170C",
"W 	c #070505",
"X 	c #350F06",
"Y 	c #A32003",
"Z 	c #A9796E",
"` 	c #F3F3F3",
" .	c #696969",
"..	c #0C0402",
"+.	c #701602",
"@.	c #6B1502",
"#.	c #7E1802",
"$.	c #A42002",
"%.	c #7A1702",
"&.	c #931C02",
"*.	c #9D280E",
"=.	c #A2685B",
"-.	c #844F43",
";.	c #4B0F02",
">.	c #AC2202",
",.	c #7C1802",
"'.	c #AE2202",
").	c #5E1202",
"!.	c #8A1A02",
"~.	c #AA2102",
"{.	c #6C1502",
"].	c #801902",
"^.	c #8B8802",
"/.	c #9D9A02",
"(.	c #9B1E02",
"_.	c #AD2202",
":.	c #891B02",
"<.	c #B6B302",
"[.	c #671302",
"}.	c #7B1702",
"|.	c #831902",
"1.	c #981E02",
"2.	c #781802",
"3.	c #571202",
"4.	c #D0CC02",
"5.	c #B7B402",
"6.	c #891A02",
"7.	c #7F1802",
"8.	c #6D1602",
"9.	c #8F1C02",
"0.	c #892102",
"a.	c #B0A302",
"b.	c #CBC702",
"c.	c #C5C102",
"d.	c #A9A602",
"e.	c #7C1702",
"f.	c #A01F02",
"g.	c #531002",
"h.	c #791802",
"i.	c #8A2302",
"j.	c #835902",
"k.	c #821902",
"l.	c #841A02",
"m.	c #5A1102",
"n.	c #470E02",
"o.	c #6F1602",
"p.	c #9C1F02",
"q.	c #6D1402",
"r.	c #7F1902",
"s.	c #931D02",
"t.	c #4F1002",
"u.	c #611202",
"v.	c #8B1B02",
"w.	c #921C02",
"x.	c #6E1602",
"y.	c #511002",
"z.	c #541002",
"A.	c #581102",
"B.	c #5F1202",
"C.	c #741602",
"D.	c #641502",
"E.	c #814C02",
"F.	c #8D7502",
"G.	c #561902",
"H.	c #861B02",
"I.	c #6A3802",
"J.	c #C7BF02",
"K.	c #916F02",
"L.	c #701E02",
"M.	c #A11F02",
"N.	c #991E02",
"O.	c #6A1402",
"P.	c #5D1C02",
"Q.	c #731602",
"R.	c #6F1702",
"S.	c #731502",
"T.	c #5B2403",
"U.	c #B19902",
"V.	c #896002",
"W.	c #7A5302",
"X.	c #BAA202",
"Y.	c #623502",
"Z.	c #906C02",
"`.	c #A78E02",
" +	c #691302",
".+	c #BBB702",
"++	c #9C9A48",
"@+	c #E1DD0E",
"#+	c #A5A302",
"$+	c #AAA702",
"%+	c #A09D02",
"&+	c #989502",
"*+	c #7D7B02",
"=+	c #571102",
"-+	c #DCD802",
";+	c #BBB82D",
">+	c #EBE70A",
",+	c #D0CD02",
"'+	c #9E9C02",
")+	c #BBB802",
"!+	c #6F6D13",
"~+	c #787740",
"{+	c #A3A145",
"]+	c #8E8B17",
"^+	c #BCBCB4",
"/+	c #E4E4E4",
"(+	c #EBEBEB",
"_+	c #D8D8D8",
":+	c #831A02",
"<+	c #ACAB8D",
"[+	c #CDCB42",
"}+	c #DDD91C",
"|+	c #E8E403",
"1+	c #F9F502",
"2+	c #F2EF03",
"3+	c #B5B348",
"4+	c #EEEEEE",
"5+	c #929292",
"6+	c #B3B3B3",
"7+	c #CBCBCB",
"8+	c #C4C4C4",
"9+	c #B5B5B5",
"0+	c #651302",
"a+	c #871A02",
"b+	c #BCBBB8",
"c+	c #D1D0B7",
"d+	c #D5D498",
"e+	c #C4C270",
"f+	c #ADAC55",
"g+	c #A8A894",
"h+	c #C6C6C6",
"i+	c #C7C7C7",
"j+	c #C2C2C2",
"k+	c #9E9E9D",
"l+	c #C3C3C3",
"m+	c #6F1502",
"n+	c #5D1202",
"o+	c #A72102",
"p+	c #8D1C02",
"q+	c #C0C0C0",
"r+	c #C8C8C8",
"s+	c #C9C9C9",
"t+	c #CACACA",
"u+	c #C5C5C5",
"v+	c #460E02",
"w+	c #671402",
"x+	c #811902",
"y+	c #761802",
"                                      .                         ",
"                  +                     @ #                     ",
"                $ %                       & *                   ",
"                = -         ; $ > , ' ) ! ~ { ]                 ",
"              ^ / (     _ : ' ' ) < [ } | 1 2 3                 ",
"              , 4 5 6 7 8 4 ' & 9 0 a b c d e f                 ",
"              g h & i f j & ' k l m n o p q r s                 ",
"                t h ' ' ' ' u ( v w x y z A B C                 ",
"                  D : ' ' ' / E F G H I J K L M                 ",
"                    N $ ' ' O P Q R S T U V W X                 ",
"                      , ' ' O } Y Z `  ...+.@.#.$.              ",
"                      , ' ' %.j &.*.=.-.;.5 >.,.'.<             ",
"                      ).' ' & !.~.'.'.'.{.< ].e 6   ^./.        ",
"                        ) ' 4 (.f { '.'.'._.:.#         <.      ",
"                          [.' }.5 |.+ 1.5 2.3.      4.5.        ",
"                            h }.k 6.7.+ 8.    9.0.a.b.c.    d.  ",
"                            e.f.'.'.P ~.    g.h.i.j.            ",
"                          ; k.6 '.'.] l.+.m.n.o.p.2             ",
"                          q.#.r.5 9 1.'.s.t.u.$ l.              ",
"                          @ & 2 v.w.>.'.E x.y.o.                ",
"                          u.' ' ' ' #.6.7.,.                    ",
"                          z.A.B.^ C.' ' ~ g                     ",
"                          D.E.a.F.G.D ^ H.~.                    ",
"                          I.J.K.L.#.M.P '.N.                    ",
"                        $ O.P.C.Q.R.1.1.l.                      ",
"                      @ S.T.U.V.W.X.Y.Z.`.                      ",
"                B. +$ @   .+++@+#+$+^.%+&+*+                    ",
"      =+[.$ ; D ; N       -+;+>+,+d.'+)+!+~+{+]+^+/+(+_+        ",
"  h :+                    <+[+}+|+1+2+3+4+x x S 5+6+7+8+9+      ",
"0+a+                        b+c+d+e+f+g+h+i+j+h+6+k+9+l+        ",
"  m+) n+|.o+p+                    q+r+s+t+u+l+                  ",
"      v+w+x+e y+                                                "};
