/* XPM */
static char * find_32x32_xpm[] = {
"32 32 290 2",
"  	c None",
". 	c #000000",
"+ 	c #020202",
"@ 	c #191919",
"# 	c #383838",
"$ 	c #3F3F3F",
"% 	c #353535",
"& 	c #1D1D1D",
"* 	c #010101",
"= 	c #252525",
"- 	c #595959",
"; 	c #9FA0A0",
"> 	c #AFB7B8",
", 	c #A7B9BC",
"' 	c #A4B9BC",
") 	c #A5B8BB",
"! 	c #AAB6B8",
"~ 	c #979899",
"{ 	c #5F5F5F",
"] 	c #1F1F1F",
"^ 	c #040404",
"/ 	c #3E3E3E",
"( 	c #9C9C9C",
"_ 	c #ADB6B8",
": 	c #97C7CD",
"< 	c #89CED6",
"[ 	c #80D1DB",
"} 	c #7CD2DC",
"| 	c #7DD1DB",
"1 	c #81CED7",
"2 	c #8BC5CC",
"3 	c #9EB6B9",
"4 	c #8F8F8F",
"5 	c #444444",
"6 	c #050505",
"7 	c #636363",
"8 	c #B0B4B4",
"9 	c #A2C8CD",
"0 	c #92DBE4",
"a 	c #8EDEE8",
"b 	c #8BDDE7",
"c 	c #85DBE5",
"d 	c #7FD9E4",
"e 	c #78D7E3",
"f 	c #76D7E3",
"g 	c #89C5CC",
"h 	c #A4B2B4",
"i 	c #575757",
"j 	c #0C0C0C",
"k 	c #B2B5B5",
"l 	c #A8CBCF",
"m 	c #9DE1E9",
"n 	c #9EE2EA",
"o 	c #9CE2EA",
"p 	c #99E0EA",
"q 	c #92DFE8",
"r 	c #80DAE5",
"s 	c #79D7E3",
"t 	c #77D6E2",
"u 	c #82CCD5",
"v 	c #9DA4A5",
"w 	c #474747",
"x 	c #2C2C2C",
"y 	c #A2A2A2",
"z 	c #AECCD0",
"A 	c #A9E4EC",
"B 	c #AEE7EE",
"C 	c #AFE7EF",
"D 	c #ADE7EE",
"E 	c #A9E5ED",
"F 	c #A1E3EB",
"G 	c #99E1EA",
"H 	c #8EDDE7",
"I 	c #83DAE5",
"J 	c #85C7D0",
"K 	c #A1A8A9",
"L 	c #666666",
"M 	c #B6BCBD",
"N 	c #B0E4EA",
"O 	c #B6E9F0",
"P 	c #BCEBF1",
"Q 	c #BDEBF1",
"R 	c #BBEBF1",
"S 	c #A4E4EC",
"T 	c #97E0E9",
"U 	c #8CDDE7",
"V 	c #7DD9E4",
"W 	c #77D7E3",
"X 	c #78D5E0",
"Y 	c #95B8BD",
"Z 	c #626262",
"` 	c #080808",
" .	c #AFAFAF",
"..	c #B5D1D4",
"+.	c #C6EEF3",
"@.	c #CDF0F5",
"#.	c #CFF1F5",
"$.	c #CCF0F4",
"%.	c #C5EEF3",
"&.	c #BAEAF1",
"*.	c #B0E7EE",
"=.	c #A1E3EC",
"-.	c #94E0E9",
";.	c #85DBE6",
">.	c #79D8E3",
",.	c #7ECDD7",
"'.	c #8F8F90",
").	c #2B2B2B",
"!.	c #BCC0C0",
"~.	c #B9DCE1",
"{.	c #D1F1F5",
"].	c #DAF4F7",
"^.	c #DDF5F7",
"/.	c #D9F3F7",
"(.	c #D0F1F5",
"_.	c #C3EDF2",
":.	c #B7EAF0",
"<.	c #A7E5ED",
"[.	c #9AE1EA",
"}.	c #8ADDE6",
"|.	c #76D6E2",
"1.	c #9BA6A7",
"2.	c #333333",
"3.	c #4C4C4C",
"4.	c #BBC3C4",
"5.	c #BDE3E7",
"6.	c #CEF0F5",
"7.	c #DBF4F8",
"8.	c #E9F8FA",
"9.	c #EEFAFB",
"0.	c #E6F7FA",
"a.	c #CBEFF4",
"b.	c #ACE6EE",
"c.	c #9EE2EB",
"d.	c #8DDDE7",
"e.	c #7FD9E5",
"f.	c #99B6BA",
"g.	c #545454",
"h.	c #BBC4C5",
"i.	c #BFE5E9",
"j.	c #DFF5F8",
"k.	c #EFFAFC",
"l.	c #F7FCFD",
"m.	c #ECF9FB",
"n.	c #DEF5F8",
"o.	c #CDF0F4",
"p.	c #BFECF2",
"q.	c #A0E3EB",
"r.	c #8EDEE7",
"s.	c #96B8BD",
"t.	c #4F4F4F",
"u.	c #4A4A4A",
"v.	c #BEE3E7",
"w.	c #CEF1F4",
"x.	c #DBF4F7",
"y.	c #E8F8FA",
"z.	c #EDF9FB",
"A.	c #CAEFF4",
"B.	c #BDECF1",
"C.	c #ACE7EE",
"D.	c #9EE3EB",
"E.	c #9AB5B9",
"F.	c #464646",
"G.	c #2F2F2F",
"H.	c #BCC1C1",
"I.	c #BADDE2",
"J.	c #C8EFF3",
"K.	c #D2F2F5",
"L.	c #DCF4F8",
"M.	c #E0F5F8",
"N.	c #D2F1F5",
"O.	c #C4EDF3",
"P.	c #B8EAF0",
"Q.	c #A8E5ED",
"R.	c #9BE1EA",
"S.	c #8ADCE7",
"T.	c #9CA9AA",
"U.	c #ABABAB",
"V.	c #B6CFD2",
"W.	c #C5EDF3",
"X.	c #CEF0F4",
"Y.	c #CBF0F4",
"Z.	c #BAEBF0",
"`.	c #AFE7EE",
" +	c #94E0E8",
".+	c #84DBE6",
"++	c #79D8E4",
"@+	c #80CCD5",
"#+	c #8D8D8D",
"$+	c #1C1C1C",
"%+	c #6D6D6D",
"&+	c #B8BFC0",
"*+	c #B1E5EC",
"=+	c #B9EAF0",
"-+	c #BEECF2",
";+	c #C0ECF2",
">+	c #A6E4EC",
",+	c #98E1EA",
"'+	c #7ED9E5",
")+	c #77D5E1",
"!+	c #93BBC0",
"~+	c #6A6A6A",
"{+	c #070707",
"]+	c #AFCACD",
"^+	c #A9E3EA",
"/+	c #82DAE5",
"(+	c #88C5CC",
"_+	c #8F9697",
":+	c #1C2223",
"<+	c #010303",
"[+	c #060606",
"}+	c #494949",
"|+	c #B9BDBE",
"1+	c #A8CED3",
"2+	c #9FE3EB",
"3+	c #7AD8E4",
"4+	c #7FCED7",
"5+	c #8A9697",
"6+	c #3F4C4E",
"7+	c #4F8F98",
"8+	c #192F31",
"9+	c #565656",
"0+	c #ACACAC",
"a+	c #A5C8CC",
"b+	c #95D7DF",
"c+	c #84DBE5",
"d+	c #79D4DF",
"e+	c #8CC3CA",
"f+	c #8C9596",
"g+	c #415356",
"h+	c #6CB6C0",
"i+	c #5FACB6",
"j+	c #020505",
"k+	c #0D0D0D",
"l+	c #424242",
"m+	c #A9ABAB",
"n+	c #AEBEBF",
"o+	c #98C7CD",
"p+	c #87D1DA",
"q+	c #7BD3DE",
"r+	c #8AC6CD",
"s+	c #9CBABE",
"t+	c #929696",
"u+	c #4D5152",
"v+	c #98C3C9",
"w+	c #99E0E9",
"x+	c #71C2CC",
"y+	c #2D4F53",
"z+	c #141414",
"A+	c #A1A1A1",
"B+	c #ABAFB0",
"C+	c #AAB4B5",
"D+	c #A8ADAE",
"E+	c #A0A0A0",
"F+	c #898989",
"G+	c #A0A8A9",
"H+	c #D4F2F6",
"I+	c #A5D1D6",
"J+	c #374749",
"K+	c #3D3D3D",
"L+	c #2E2E2E",
"M+	c #0E0E0E",
"N+	c #3C3C3C",
"O+	c #373737",
"P+	c #161616",
"Q+	c #030303",
"R+	c #323333",
"S+	c #B7C1C3",
"T+	c #555F60",
"U+	c #656565",
"V+	c #676767",
"W+	c #090909",
"X+	c #9B9B9B",
"Y+	c #868686",
"Z+	c #686868",
"`+	c #808080",
" @	c #535353",
".@	c #9A9A9A",
"+@	c #646464",
"@@	c #505050",
"#@	c #999999",
"$@	c #606060",
"%@	c #434343",
"&@	c #111111",
"*@	c #4D4D4D",
"=@	c #989898",
"-@	c #787878",
";@	c #1B1B1B",
">@	c #4E4E4E",
",@	c #363636",
"                    . . .                                       ",
"              . + @ # $ % & * .                                 ",
"          . = - ; > , ' ) ! ~ { ] ^                             ",
"        ^ / ( _ : < [ } | 1 2 3 4 5 .                           ",
"      6 7 8 9 0 a b c d e f f f g h i j                         ",
"    * 5 k l m n o p q b r s f f t u v w .                       ",
"    x y z A B C D E F G H I e f f f J K & .                     ",
"  . L M N O P Q R O D S T U V W f f X Y Z ^                     ",
"  `  ...Q +.@.#.$.%.&.*.=.-.;.>.f f f ,.'.]                     ",
"  ).!.~.+.{.].^./.(._.:.<.[.}.V f f f |.1.2..                   ",
". 3.4.5.6.7.8.9.0.].a.Q b.c.d.e.f f f f f.w .                   ",
". g.h.i.{.j.k.l.m.n.o.p.B q.r.r f f f f s.t..                   ",
". u.4.v.w.x.y.z.0.].A.B.C.D.d.e.f f f f E.F..                   ",
"  G.H.I.J.K.L.M.].N.O.P.Q.R.S.V f f f f T.% .                   ",
"  ^ U.V.P W.$.X.Y.%.Z.`.q. +.+++f f f @+#+$+                    ",
"  . %+&+*+=+-+;+B.P.`.>+,+d.'+W f f )+!+~+{+                    ",
"    = ( ]+^+D B C.Q.q.G d./+e f f f (+_+:+<+                    ",
"    [+}+|+1+2+q.2+R. +d./+3+f f f 4+5+6+7+8+.                   ",
"      . 9+0+a+b+d.S.c+'+e f f d+e+f+g+h+f i+j+.                 ",
"        k+l+m+n+o+p+s W f q+r+s+t+u+v+w+x+y+` .                 ",
"          . z+i 4 A+B+C+D+E+F+{ ] G+H+I+J+K+L+M+.               ",
"              * @ ).# N+O+).P+Q++ R+S+T+U+V+}+L+W+.             ",
"                                  . Q+u.X+Y+Z+t.G.M+.           ",
"                                    . ` L X+`+Z+}+G.W+.         ",
"                                        `  @.@Y+V+t.L+M+.       ",
"                                        . {++@.@`+V+}+L+W+.     ",
"                                            {+@@#@Y+V+t.L+k+.   ",
"                                            . [+$@#@`+V+%@&@.   ",
"                                                [+*@=@-@;@.     ",
"                                                . [+>@,@.       ",
"                                                    . .         ",
"                                                                "};
