/* XPM */
static char * k3b_16x16_xpm[] = {
"16 16 54 1",
" 	c None",
".	c #BC0033",
"+	c #BE0537",
"@	c #BF0A3A",
"#	c #BC0133",
"$	c #CC3F65",
"%	c #CC3C63",
"&	c #DC5C77",
"*	c #FFC2C2",
"=	c #C00B3B",
"-	c #F7E3E8",
";	c #E08AA2",
">	c #BD0335",
",	c #DC7B95",
"'	c #FEFCFC",
")	c #F7DFE6",
"!	c #EEC0CC",
"~	c #C82F59",
"{	c #EDBAC7",
"]	c #F9E9ED",
"^	c #D04F72",
"/	c #C0103F",
"(	c #E8A7B8",
"_	c #FFFFFF",
":	c #C31947",
"<	c #F1C9D4",
"[	c #D04C6F",
"}	c #D25577",
"|	c #CB2B53",
"1	c #DB5A75",
"2	c #E497AC",
"3	c #E9AABB",
"4	c #CB3960",
"5	c #C11342",
"6	c #C62651",
"7	c #E291A7",
"8	c #C41F4C",
"9	c #DA718E",
"0	c #C31C4A",
"a	c #F2CDD7",
"b	c #F8E6EB",
"c	c #CD4268",
"d	c #EBB3C3",
"e	c #F0C6D1",
"f	c #FDF9FA",
"g	c #CE456A",
"h	c #ECB7C5",
"i	c #E7A4B6",
"j	c #D76886",
"k	c #D86B88",
"l	c #FBEFF2",
"m	c #DF849C",
"n	c #FCF2F5",
"o	c #BE093B",
".........+@@@@@#",
".$.....%.&*****=",
".-;>.>,'.&*****=",
".%)!~{]^.&*****=",
"../(_{:..&*****=",
".<--_---.&*****=",
".[}}}}}}.|11111+",
".2[.3453663378..",
".-9._}0_44_ab)>.",
".-9._}0_44_0c_0.",
".-9._}0_44_d)e..",
".-9._}0_44_d!fg.",
".-9._}0_44_0.hi.",
".-9._}0_44_jklm.",
".-9._}0_44__n(o.",
"................"};
