/* XPM */
static char * losthero_16x16_xpm[] = {
"16 16 39 1",
" 	c None",
".	c #BBAE99",
"+	c #795A45",
"@	c #614637",
"#	c #E5DDD7",
"$	c #E6DFDF",
"%	c #D7D1D2",
"&	c #B9AFAC",
"*	c #BBB4B5",
"=	c #CCC3C1",
"-	c #C6BBB8",
";	c #B78868",
">	c #BE815C",
",	c #BA8769",
"'	c #AA7E63",
")	c #C3A897",
"!	c #F3EDEC",
"~	c #F2EBEB",
"{	c #F2EBEC",
"]	c #F3ECEB",
"^	c #F1E9E9",
"/	c #CEC9CA",
"(	c #CDC7C8",
"_	c #CBC5C6",
":	c #C6C1C1",
"<	c #A5A3A1",
"[	c #806557",
"}	c #6E5748",
"|	c #B9AFAB",
"1	c #A09491",
"2	c #887D77",
"3	c #8E8380",
"4	c #958A86",
"5	c #8D817B",
"6	c #988F8B",
"7	c #99908D",
"8	c #9B928F",
"9	c #97918F",
"0	c #6A6563",
"                ",
"                ",
"                ",
"                ",
"   .            ",
"   .            ",
"+ @#$%&*=-      ",
";>,')!~{]^/(_:<[",
"}  .|1234567890 ",
"   .            ",
"   .            ",
"                ",
"                ",
"                ",
"                ",
"                "};
