/* XPM */
static char * mixer_16x16_xpm[] = {
"16 16 48 1",
" 	c None",
".	c #000000",
"+	c #020202",
"@	c #010202",
"#	c #191714",
"$	c #6B6960",
"%	c #1E1E1B",
"&	c #050505",
"*	c #34332E",
"=	c #393732",
"-	c #201F1B",
";	c #868278",
">	c #CFCCC1",
",	c #242422",
"'	c #141312",
")	c #B9B7AC",
"!	c #9C9A8F",
"~	c #5A5954",
"{	c #DBD8D1",
"]	c #DDDBD6",
"^	c #252424",
"/	c #131311",
"(	c #B8B5A9",
"_	c #9D9A8E",
":	c #5E5D58",
"<	c #CFCBC0",
"[	c #CDC9BD",
"}	c #1F1E1D",
"|	c #10100E",
"1	c #9B988A",
"2	c #868378",
"3	c #4D4B44",
"4	c #B4B0A0",
"5	c #BDB9A9",
"6	c #1C1C19",
"7	c #0B0B0A",
"8	c #706E64",
"9	c #65635A",
"0	c #3E3C36",
"a	c #A39F91",
"b	c #A9A596",
"c	c #010101",
"d	c #080808",
"e	c #0A0A09",
"f	c #4C4C43",
"g	c #A09C8E",
"h	c #403F37",
"i	c #11100E",
"                ",
"                ",
"             .  ",
"     +@   .. .. ",
"    #$%    .  . ",
"&*=-;>,  . .. ..",
"')!~{]^  .... ..",
"/(_:<[}. .. . ..",
"|123456. .. . ..",
"7890ab6  .  . ..",
"cde fg6  . .  . ",
"     hi   ..  . ",
"      .      .. ",
"                ",
"                ",
"                "};
