/* XPM */
static char * mp3_32x32_xpm[] = {
"32 32 41 1",
" 	c None",
".	c #E5A064",
"+	c #E4AD7F",
"@	c #E3B793",
"#	c #E5A36B",
"$	c #E3B086",
"%	c #E0C0A6",
"&	c #E3B38D",
"*	c #E4AA78",
"=	c #E4A672",
"-	c #E2BA9A",
";	c #0963EA",
">	c #87869D",
",	c #E3AB7A",
"'	c #E1BEA3",
")	c #1067E9",
"!	c #1D6EE7",
"~	c #186BE8",
"{	c #5277BD",
"]	c #216ADB",
"^	c #98A1BD",
"/	c #E1C1A9",
"(	c #4483E2",
"_	c #9C8C91",
":	c #E1B997",
"<	c #E3AE82",
"[	c #3078E5",
"}	c #166AE8",
"|	c #4B88E4",
"1	c #7A8DB8",
"2	c #E1B590",
"3	c #528DE6",
"4	c #5992E7",
"5	c #4F8BE5",
"6	c #4072C8",
"7	c #E2B085",
"8	c #E0C3AE",
"9	c #4886E3",
"0	c #AF968E",
"a	c #ACACBA",
"b	c #DFCABA",
"                        ...     ",
"                        ....    ",
"                      ...+@#.   ",
"                      ....$@.   ",
"                    .......%&.  ",
"                    ...  ..%&.  ",
"                  ....    .%&.  ",
"                  ..      .%&.  ",
"                          #@+   ",
"                          *$.   ",
"                        .=-=    ",
"   ;; ;;;; ;;;;;;  ;;;;>,'&.    ",
"   ;; )!~; ;;;;;;; ;;;{];^/$    ",
"   ;;;!((;;;;  ;;;;   .{;_:/<   ",
"   ;!!!( ;!([  ;)!} ...{!|12/$  ",
"   ;||   ;!3[  ;!([ ...{!41.:/. ",
"   ;55;  ;!4[  ;!4[ ...6!4(.78. ",
"   ;55;  ;!4[  ;!4[    ;!4(.78. ",
"   ;55;  ;!4[  ;!4[    ;!41.:/. ",
"   ;55;  ;!4[  ;!4[;;;;;!|12/$. ",
"   ;55;  ;!4[  ;!4[[9555|0:/+.  ",
"   ;55;  ;!4[  ;!4[[9555|a/$.   ",
"   ;55;  ;!4[  ;!4[    .:/+.    ",
"   ;55;  ;!4[  ;!4[   .2/$.     ",
"   ;((;  ;!([  ;!4[  .:/+.      ",
"   ;!!;  ;)!}  ;!4[  .b$.       ",
"               ;!4[  .+.        ",
"               ;!4[  ...        ",
"               ;!4[             ",
"               ;!4[             ",
"               ;!([             ",
"               ;)!}             "};
