/* XPM */
static char * printer_48x48_xpm[] = {
"48 48 304 2",
"  	c None",
". 	c #664B2A",
"+ 	c #F7F2EE",
"@ 	c #F6F2ED",
"# 	c #F6F1EC",
"$ 	c #F6F1EB",
"% 	c #F5F0EA",
"& 	c #F5F0E9",
"* 	c #F5EFE9",
"= 	c #F5EFE8",
"- 	c #F4EEE7",
"; 	c #F4EEE6",
"> 	c #F4EDE5",
", 	c #F3EDE5",
"' 	c #F6F2EC",
") 	c #F5F1EB",
"! 	c #F4EFE7",
"~ 	c #F3EDE4",
"{ 	c #F3ECE3",
"] 	c #F2EBE2",
"^ 	c #F4EFE8",
"/ 	c #F3ECE4",
"( 	c #F3EBE2",
"_ 	c #F2EBE1",
": 	c #F2EAE0",
"< 	c #F3ECE2",
"[ 	c #F2EADF",
"} 	c #F1E9DE",
"| 	c #F1E8DD",
"1 	c #F1E9DF",
"2 	c #F1E8DC",
"3 	c #F0E7DC",
"4 	c #F0E7DB",
"5 	c #F2EAE1",
"6 	c #F0E6DA",
"7 	c #F0E6D9",
"8 	c #EFE5D9",
"9 	c #EFE5D8",
"0 	c #F0E8DC",
"a 	c #EFE6D9",
"b 	c #EFE5D7",
"c 	c #EEE4D7",
"d 	c #EEE4D6",
"e 	c #EFE4D7",
"f 	c #EEE3D5",
"g 	c #EEE3D4",
"h 	c #EDE2D4",
"i 	c #F0E7DA",
"j 	c #EDE2D3",
"k 	c #EDE1D2",
"l 	c #EDE1D1",
"m 	c #ECE0D0",
"n 	c #EBDECE",
"o 	c #624829",
"p 	c #EEE3D6",
"q 	c #EEE2D4",
"r 	c #ECE0D1",
"s 	c #ECDFCF",
"t 	c #ECDFCE",
"u 	c #EBDECD",
"v 	c #E8DBCB",
"w 	c #5C4426",
"x 	c #ECE0CF",
"y 	c #EBDFCE",
"z 	c #EBDECC",
"A 	c #EBDDCB",
"B 	c #E6DAC8",
"C 	c #594125",
"D 	c #323232",
"E 	c #EBDDCC",
"F 	c #EADDCB",
"G 	c #EADCCA",
"H 	c #E9DBC8",
"I 	c #E4D5C3",
"J 	c #574024",
"K 	c #808080",
"L 	c #D7D7D7",
"M 	c #ACB1B3",
"N 	c #E9DBC9",
"O 	c #E7D9C8",
"P 	c #E6D8C6",
"Q 	c #E4D7C4",
"R 	c #DED0BE",
"S 	c #CFC1AF",
"T 	c #4E3A20",
"U 	c #211E1B",
"V 	c #292827",
"W 	c #2E2E2E",
"X 	c #624828",
"Y 	c #EBDFD0",
"Z 	c #EADCCB",
"` 	c #E7DAC9",
" .	c #E6D9C7",
"..	c #E5D8C5",
"+.	c #DFD1BF",
"@.	c #D1C5B4",
"#.	c #CBBEAD",
"$.	c #C7BAA9",
"%.	c #BBAE9E",
"&.	c #A29789",
"*.	c #3E2E1A",
"=.	c #201B15",
"-.	c #1F1D1D",
";.	c #272626",
">.	c #553F23",
",.	c #DFD4C5",
"'.	c #E8DCCC",
").	c #EADDCC",
"!.	c #E8DACA",
"~.	c #E7DAC8",
"{.	c #E5D8C6",
"].	c #DFD2C0",
"^.	c #D2C5B5",
"/.	c #CBBFAE",
"(.	c #C7BAAA",
"_.	c #BBAF9F",
":.	c #A4988A",
"<.	c #978D80",
"[.	c #93897D",
"}.	c #8D8377",
"|.	c #C3C7C9",
"1.	c #C0C3C5",
"2.	c #BFC3C5",
"3.	c #BEC2C4",
"4.	c #44321C",
"5.	c #BDB3A6",
"6.	c #D1C6B6",
"7.	c #E0D4C2",
"8.	c #DFD3C1",
"9.	c #D2C6B5",
"0.	c #CCC0AF",
"a.	c #C8BBAB",
"b.	c #BBB0A0",
"c.	c #A4998C",
"d.	c #988E81",
"e.	c #938A7D",
"f.	c #8D8477",
"g.	c #ADB3B5",
"h.	c #ACB2B4",
"i.	c #E5E5E5",
"j.	c #C2C5C7",
"k.	c #C1C5C7",
"l.	c #91887E",
"m.	c #A39A8E",
"n.	c #BCB1A2",
"o.	c #C6BAAA",
"p.	c #BCB0A2",
"q.	c #A49A8C",
"r.	c #988E82",
"s.	c #948A7E",
"t.	c #8E8478",
"u.	c #B3B8BA",
"v.	c #B2B8BA",
"w.	c #B2B7B9",
"x.	c #B1B6B8",
"y.	c #B0B6B8",
"z.	c #B0B5B7",
"A.	c #AFB5B7",
"B.	c #AEB4B6",
"C.	c #AEB3B5",
"D.	c #C4C7C9",
"E.	c #8E857A",
"F.	c #938A7E",
"G.	c #8E8579",
"H.	c #B9BEC0",
"I.	c #B9BDBF",
"J.	c #B8BDBF",
"K.	c #B7BCBE",
"L.	c #B7BBBD",
"M.	c #B6BBBD",
"N.	c #B5BABC",
"O.	c #B5B9BB",
"P.	c #B4B9BB",
"Q.	c #C7C9CB",
"R.	c #BEC1C3",
"S.	c #BDC1C3",
"T.	c #BCC0C2",
"U.	c #BBC0C2",
"V.	c #BBBFC1",
"W.	c #BABEC0",
"X.	c #AFB4B6",
"Y.	c #C9CCCE",
"Z.	c #C9CBCD",
"`.	c #C6C9CB",
" +	c #C5C8CA",
".+	c #C4C8CA",
"++	c #C3C6C8",
"@+	c #C2C6C8",
"#+	c #C0C4C6",
"$+	c #B1B7B9",
"%+	c #CCCED0",
"&+	c #CBCED0",
"*+	c #CBCDCF",
"=+	c #CACDCF",
"-+	c #C8CBCD",
";+	c #C7CACC",
">+	c #CFD1D3",
",+	c #CED0D2",
"'+	c #CDD0D2",
")+	c #CDCFD1",
"!+	c #838383",
"~+	c #414141",
"{+	c #BCC1C3",
"]+	c #BABFC1",
"^+	c #D2D4D6",
"/+	c #D2D3D5",
"(+	c #D1D3D5",
"_+	c #D0D2D4",
":+	c #696969",
"<+	c #D6D7D9",
"[+	c #D5D6D8",
"}+	c #D4D6D8",
"|+	c #D4D5D7",
"1+	c #D3D5D7",
"2+	c #B6BABC",
"3+	c #BEC3C5",
"4+	c #D9DADC",
"5+	c #D8D9DB",
"6+	c #D7D8DA",
"7+	c #D6D8DA",
"8+	c #B8BCBE",
"9+	c #DCDDDF",
"0+	c #DBDCDE",
"a+	c #DBDBDD",
"b+	c #DADBDD",
"c+	c #BDC0C2",
"d+	c #B3B7B9",
"e+	c #C7CBCD",
"f+	c #C5C9CB",
"g+	c #DFE0E2",
"h+	c #DFDFE1",
"i+	c #DEDEE0",
"j+	c #DDDEE0",
"k+	c #DDDDDF",
"l+	c #BABDBF",
"m+	c #E1E1E3",
"n+	c #E0E0E2",
"o+	c #BFC2C4",
"p+	c #B2B6B8",
"q+	c #CED1D3",
"r+	c #CCCFD1",
"s+	c #BCBFC1",
"t+	c #392A17",
"u+	c #AFB3B5",
"v+	c #D0D3D5",
"w+	c #CFD2D4",
"x+	c #C1C4C6",
"y+	c #AEA79F",
"z+	c #BDB7AF",
"A+	c #CBC5BE",
"B+	c #503B21",
"C+	c #4A361E",
"D+	c #D2D5D7",
"E+	c #D1D4D6",
"F+	c #C6C8CA",
"G+	c #ACA399",
"H+	c #BBB2A8",
"I+	c #C8C0B6",
"J+	c #D7CFC5",
"K+	c #E5DDD4",
"L+	c #E7E1DA",
"M+	c #DAD6D0",
"N+	c #CDCAC6",
"O+	c #5B4325",
"P+	c #604728",
"Q+	c #D7D9DB",
"R+	c #D5D7D9",
"S+	c #AA9F92",
"T+	c #B8AEA1",
"U+	c #C6BCAF",
"V+	c #D4CABE",
"W+	c #E2D8CC",
"X+	c #D8DADC",
"Y+	c #D3D6D8",
"Z+	c #C8CACC",
"`+	c #A79B8C",
" @	c #B6A99B",
".@	c #C3B7A8",
"+@	c #D1C5B6",
"@@	c #DFD3C4",
"#@	c #DADCDE",
"$@	c #D9DBDD",
"%@	c #B4A897",
"&@	c #C1B4A2",
"*@	c #CFC0AE",
"=@	c #DCCEBB",
"-@	c #DBDDDF",
";@	c #CACCCE",
">@	c #9A8F81",
",@	c #CEBFAD",
"'@	c #DACBB7",
")@	c #E7D7C2",
"!@	c #E8D8C4",
"~@	c #E9DAC7",
"{@	c #DEE0E2",
"]@	c #DEDFE1",
"^@	c #DDDFE1",
"/@	c #DCDEE0",
"(@	c #E8D9C5",
"_@	c #E9D9C5",
":@	c #EADBC9",
"<@	c #E8D8C3",
"[@	c #E9DAC6",
"}@	c #EADCC9",
"                                                                                                ",
"                                                                                                ",
"                                                                                                ",
"          . . . . . . . . . . . . . . . . . . . . .                                             ",
"            . + + + + + + + + @ # $ % & * = - ; > , .                                           ",
"              . + + + + @ ' $ ) % & = ! - ; > ~ { { ] .                                         ",
"              . + @ @ # $ % & * ^ - ; > , / { ( _ : : .                                         ",
"                . $ ) % & = ! ; ; , ~ { < ] _ : [ } } | .                                       ",
"                . & = ^ - ; > ~ / { ] _ : : 1 } | 2 3 4 .                                       ",
"                  . ; ; , / { ( ] 5 : 1 } | | 3 4 6 7 8 9 .                                     ",
"                  . ~ { { ] _ : [ 1 } | 0 4 4 6 a 9 b c d .                                     ",
"                  . ( _ 5 : 1 } | | 3 4 6 a 8 9 e d f g h .                                     ",
"                    . [ 1 } | 0 4 i 6 a 9 b d d f g j k k .                                     ",
"                    . | 2 3 4 6 a 9 9 e d f g h j k l m m n o                                   ",
"                    . 4 6 6 8 9 e d p f q j k l r m s t u v w                                   ",
"                      . 9 b e d f g j j k l m x s y u z A B C D D D D D                         ",
"                      . d f f q j k l r m s t u u E F G H I J D K L M M D D                     ",
"                      . g j j k l m x t y u z A N O P Q R S T U V W D L M M D                   ",
"                      X Y l m m s t u z Z `  ...+.@.#.$.%.&.*.=.-.;.D D L M M D                 ",
"          D D D D     >.,.'.u n ).!.~.{.].^./.(._.:.<.[.}.D D D D L L L M M M M D               ",
"      D D |.1.2.3.D D 4.5.6.7.{.8.9.0.a.b.c.d.e.f.D D D D L L L L g.h.M M M M M D               ",
"    D M M M i.i.j.k.L D l.m.n.o.p.q.r.s.t.D D D D L L L L u.v.w.x.y.z.A.B.C.g.h.M D             ",
"  D h.M M M M M i.i.D.L D D E.F.G.D D D D L L L L H.I.J.K.L.M.N.O.P.u.v.w.x.y.z.A.D             ",
"D z.A.B.B.g.g.h.M M i.Q.L L D D D L L L L 1.2.3.R.S.T.U.V.W.H.I.J.K.L.M.N.O.P.u.v.w.D           ",
"D u.v.w.x.y.z.A.X.B.g.i.Y.Z.L L L `. +.+D.++@+j.k.#+1.2.3.R.S.T.U.V.W.H.I.J.K.L.M.N.D           ",
"D M.N.N.P.P.u.v.w.$+x.y.i.%+&+*+=+Y.Z.-+;+Q.`. +.+D.++@+j.k.#+1.2.3.R.S.T.U.V.W.H.I.D           ",
"D H.J.J.K.K.M.M.N.P.P.u.i.>+>+,+'+)+%+&+*+=+Y.Z.-+;+Q.`. +.+D.++@+j.k.#+1.2.3.R.K !+~+          ",
"D {+T.U.]+W.H.I.J.K.K.M.M.i.^+/+(+_+>+>+,+'+)+%+&+*+=+Y.Z.-+;+Q.`. +.+D.++K K K L L :+          ",
"D 2.2.3.3.S.{+T.U.V.]+H.H.i.<+[+}+|+1+^+/+(+_+>+>+,+'+)+%+&+*+=+Y.Z.K K K L L L L.2+D           ",
"D K K k.k.#+#+2.3+3.S.S.T.i.4+5+5+6+7+<+[+}+|+1+^+/+(+_+>+>+,+K K K L L L V.I.8+2+P.D           ",
"D L L K K |.++@+k.k.#+#+2.2.i.9+0+a+b+4+5+5+6+7+<+[+}+|+K K K L L L 3.c+V.I.8+2+P.d+D           ",
"D -+e+L L K K f+ +.+|.|.@+@+i.g+h+i+j+k+9+0+a+b+4+K K K L L L j.1.3.c+V.l+8+2+O.d+x.D           ",
"D &+=+=+Y.L L K K e+;+`.f+ +i.m+m+m+m+n+g+h+K K K L L L  +++j.1.o+S.V.W.8+M.O.u.p+z.D           ",
"D q+'+'+r+r+&+L L K K Y.Y.-+i.m+m+m+m+K K K L L L -+;+ +D.j.#+o+S.s+W.8+t+*.4.p+z.u+D           ",
"D (+v+_+w+>+q+,+'+L L K K &+i.m+K K K L L L %+=+Z.;+ +D.j.x+o+S.s+t+*.4.y+z+A+B+C+4.            ",
"D }+1+1+D+^+E+(+v+_+w+L L K K K L L L >+,+%+=+Z.;+F+D.@+x+2.t+*.4.G+H+I+J+K+/ L+M+N+>.O+P+      ",
"D Q+7+7+R+R+}+}+1+1+^+^+(+L L L 1+(+_+,+r+*+Y.;+`.D.++t+*.4.S+T+U+V+W+4 } _ ~ ! ) + + + + .     ",
"  D D 4+X+5+Q+6+7+7+R+R+}+Y+i.1+(+_+,+r+*+Y.Z+`.t+*.4.`+ @.@+@@@k f 9 3 1 ] > = $ + + + + .     ",
"      D D 0+#@b+$@4+X+Q+Q+7+i./+_+,+)+*+Y.t+*.4.`+%@&@*@=@G u m j d a 2 [ { ; & ' + + . .       ",
"          D D j+9+-@0+#@b+$@i._+q+)+&+;@t+>@%@&@,@'@)@!@~@G u r h e 6 | : { ; % . . .           ",
"              D D {@]@^@j+/@i.>+)+&+;@-+*.%@'@)@)@)@)@(@H F t l g 9 4 } _ ~ . .                 ",
"                  D D g+g+g+i.)+%+=+-+D 4.>.)@)@)@)@)@_@:@E s k f 9 4 . . .                     ",
"                      D D g+i.%+D D D       . . )@)@<@[@}@z m j d . .                           ",
"                          D D D                 . . !@~@G u . . .                               ",
"                                                    . . . .                                     ",
"                                                                                                ",
"                                                                                                ",
"                                                                                                "};
