/* XPM */
static char * sodipodi2_32x32_xpm[] = {
"32 32 412 2",
"  	c None",
". 	c #110C07",
"+ 	c #0E0A05",
"@ 	c #6C4D2B",
"# 	c #533B21",
"$ 	c #422F1A",
"% 	c #9E703F",
"& 	c #45311B",
"* 	c #18110A",
"= 	c #5F4326",
"- 	c #1A130A",
"; 	c #271C0F",
"> 	c #553C22",
", 	c #835C34",
"' 	c #7D5832",
") 	c #AB7944",
"! 	c #986B3C",
"~ 	c #624426",
"{ 	c #A37240",
"] 	c #543B21",
"^ 	c #573D22",
"/ 	c #48331C",
"( 	c #2F2113",
"_ 	c #2A1E11",
": 	c #9A6C3D",
"< 	c #9C6E3E",
"[ 	c #896136",
"} 	c #95683A",
"| 	c #9F6C3C",
"1 	c #A36C3C",
"2 	c #86552F",
"3 	c #CF8046",
"4 	c #BA6838",
"5 	c #D1703C",
"6 	c #693A1F",
"7 	c #A36E3D",
"8 	c #5F4325",
"9 	c #6A4B2A",
"0 	c #140E08",
"a 	c #412E1A",
"b 	c #805B33",
"c 	c #896137",
"d 	c #9A6D3D",
"e 	c #A6713F",
"f 	c #D08147",
"g 	c #C66F3C",
"h 	c #CF7942",
"i 	c #BD6F3C",
"j 	c #A15A31",
"k 	c #9D4A27",
"l 	c #C7562C",
"m 	c #BC5129",
"n 	c #BB5C30",
"o 	c #7C4A28",
"p 	c #8B6035",
"q 	c #4A351D",
"r 	c #2C1F11",
"s 	c #6D4E2B",
"t 	c #91673A",
"u 	c #9F703F",
"v 	c #B47C45",
"w 	c #C88349",
"x 	c #D0753F",
"y 	c #A9502A",
"z 	c #5A2C17",
"A 	c #342012",
"B 	c #372515",
"C 	c #46301B",
"D 	c #442F1A",
"E 	c #2F2112",
"F 	c #3F2112",
"G 	c #9B4524",
"H 	c #C0592F",
"I 	c #C36D3B",
"J 	c #704B29",
"K 	c #644627",
"L 	c #281C10",
"M 	c #100B06",
"N 	c #49341D",
"O 	c #855E35",
"P 	c #A47240",
"Q 	c #AC713E",
"R 	c #DA8247",
"S 	c #CF723E",
"T 	c #5B2F19",
"U 	c #3A2212",
"V 	c #825A32",
"W 	c #A2703F",
"X 	c #986A3B",
"Y 	c #895F35",
"Z 	c #96693B",
"` 	c #AC7A44",
" .	c #93673A",
"..	c #422A17",
"+.	c #843E20",
"@.	c #D66837",
"#.	c #8B512C",
"$.	c #6C4727",
"%.	c #7F5A32",
"&.	c #020201",
"*.	c #77542F",
"=.	c #9D6F3E",
"-.	c #93683A",
";.	c #966639",
">.	c #D58247",
",.	c #D3753F",
"'.	c #884927",
").	c #311C0F",
"!.	c #A77642",
"~.	c #48341E",
"{.	c #251A0F",
"].	c #503820",
"^.	c #74532E",
"/.	c #7B5731",
"(.	c #5E4325",
"_.	c #8A6237",
":.	c #B58048",
"<.	c #392615",
"[.	c #894424",
"}.	c #D46837",
"|.	c #9B5B32",
"1.	c #674727",
"2.	c #9C6D3D",
"3.	c #BB7943",
"4.	c #D77D44",
"5.	c #C56A39",
"6.	c #68381E",
"7.	c #150D07",
"8.	c #6D4D2B",
"9.	c #94693B",
"0.	c #2B2013",
"a.	c #402F1B",
"b.	c #A17240",
"c.	c #D29554",
"d.	c #D89855",
"e.	c #D89856",
"f.	c #A57542",
"g.	c #90663A",
"h.	c #926639",
"i.	c #3A2112",
"j.	c #D56B38",
"k.	c #C06A39",
"l.	c #1C130B",
"m.	c #352515",
"n.	c #8D6438",
"o.	c #784E2B",
"p.	c #6D3D21",
"q.	c #A5572F",
"r.	c #8D4D2A",
"s.	c #1A0F08",
"t.	c #010100",
"u.	c #1C140D",
"v.	c #75532F",
"w.	c #D79755",
"x.	c #D89453",
"y.	c #D98D4E",
"z.	c #D9874A",
"A.	c #D9864A",
"B.	c #D89050",
"C.	c #D89755",
"D.	c #D89654",
"E.	c #D0894D",
"F.	c #7C4E2B",
"G.	c #CA6334",
"H.	c #7C3E21",
"I.	c #1A110A",
"J.	c #5C361E",
"K.	c #A65A31",
"L.	c #6D3A20",
"M.	c #3C2313",
"N.	c #302213",
"O.	c #2A1E10",
"P.	c #B68148",
"Q.	c #44301C",
"R.	c #634728",
"S.	c #CE9152",
"T.	c #D89151",
"U.	c #D17841",
"V.	c #99532D",
"W.	c #A6572E",
"X.	c #D97A42",
"Y.	c #D98C4D",
"Z.	c #D9894C",
"`.	c #C67E46",
" +	c #D07A42",
".+	c #CB6133",
"++	c #482312",
"@+	c #53371E",
"#+	c #6E4224",
"$+	c #170D07",
"%+	c #3C2A18",
"&+	c #BC854A",
"*+	c #402D19",
"=+	c #CF9151",
"-+	c #DA8147",
";+	c #492E1E",
">+	c #211610",
",+	c #7F3E20",
"'+	c #D76B39",
")+	c #DA7B42",
"!+	c #DB743F",
"~+	c #653A1F",
"{+	c #A1582F",
"]+	c #8E4524",
"^+	c #1E150C",
"/+	c #D59554",
"(+	c #845932",
"_+	c #B17C45",
":+	c #352615",
"<+	c #835D35",
"[+	c #D89352",
"}+	c #DA884B",
"|+	c #D27640",
"1+	c #61381F",
"2+	c #2F2019",
"3+	c #964324",
"4+	c #C3582D",
"5+	c #DC6836",
"6+	c #DB713B",
"7+	c #C96234",
"8+	c #412514",
"9+	c #B66637",
"0+	c #A95A30",
"a+	c #3B2414",
"b+	c #5A4024",
"c+	c #D69856",
"d+	c #D89754",
"e+	c #D98C4E",
"f+	c #D08C4F",
"g+	c #432F1B",
"h+	c #C38A4D",
"i+	c #D98E4F",
"j+	c #DA8448",
"k+	c #A35D33",
"l+	c #1D1109",
"m+	c #B1532B",
"n+	c #7C361C",
"o+	c #C15D30",
"p+	c #DC6937",
"q+	c #C96031",
"r+	c #813D20",
"s+	c #BC6837",
"t+	c #DB703B",
"u+	c #D96A37",
"v+	c #CC723E",
"w+	c #2C1B0F",
"x+	c #D89956",
"y+	c #D99051",
"z+	c #D69051",
"A+	c #AE7A45",
"B+	c #D69754",
"C+	c #D98B4D",
"D+	c #9C5C33",
"E+	c #351B0F",
"F+	c #A74A26",
"G+	c #602E18",
"H+	c #DB6E39",
"I+	c #DA713B",
"J+	c #B3542B",
"K+	c #BE5E31",
"L+	c #DB6C38",
"M+	c #DB6735",
"N+	c #BE5F32",
"O+	c #7E4325",
"P+	c #2F1D10",
"Q+	c #C98F50",
"R+	c #C28349",
"S+	c #DA8449",
"T+	c #DA7D44",
"U+	c #93522D",
"V+	c #432112",
"W+	c #903E1F",
"X+	c #6B3119",
"Y+	c #DB6D37",
"Z+	c #DB6F39",
"`+	c #DB6D38",
" @	c #DC6936",
".@	c #B25029",
"+@	c #894524",
"@@	c #2F1B0F",
"#@	c #190F08",
"$@	c #1C150B",
"%@	c #7E5932",
"&@	c #B68149",
"*@	c #593C21",
"=@	c #422B18",
"-@	c #3F2D1E",
";@	c #B86637",
">@	c #DB7A42",
",@	c #D89051",
"'@	c #D89452",
")@	c #DA7F45",
"!@	c #DA7740",
"~@	c #7F4225",
"{@	c #361C11",
"]@	c #A24825",
"^@	c #3E1C0E",
"/@	c #D95D2F",
"(@	c #DD5E30",
"_@	c #AE5029",
":@	c #AA502A",
"<@	c #31180C",
"[@	c #2F1C0F",
"}@	c #3F2D19",
"|@	c #B17E46",
"1@	c #A47441",
"2@	c #592B16",
"3@	c #D44721",
"4@	c #A74120",
"5@	c #4B413C",
"6@	c #854424",
"7@	c #DB723D",
"8@	c #D88B4C",
"9@	c #D98548",
"0@	c #DB743E",
"a@	c #CE6B39",
"b@	c #48362C",
"c@	c #4A3228",
"d@	c #A74D29",
"e@	c #1B0E07",
"f@	c #441E0F",
"g@	c #35150B",
"h@	c #080503",
"i@	c #BB844A",
"j@	c #CE9252",
"k@	c #503921",
"l@	c #37190D",
"m@	c #7C2C14",
"n@	c #3C160A",
"o@	c #301E15",
"p@	c #BC572C",
"q@	c #DC6332",
"r@	c #DB733C",
"s@	c #CB5D2F",
"t@	c #5D2E18",
"u@	c #271E19",
"v@	c #864429",
"w@	c #884625",
"x@	c #2A1D10",
"y@	c #B97843",
"z@	c #8B5A31",
"A@	c #D28D4E",
"B@	c #A16135",
"C@	c #7B4122",
"D@	c #964826",
"E@	c #CB6132",
"F@	c #C85128",
"G@	c #D9582B",
"H@	c #DC5E2F",
"I@	c #DD562A",
"J@	c #CD4B24",
"K@	c #AE411F",
"L@	c #AB4925",
"M@	c #81381D",
"N@	c #110905",
"O@	c #8A522D",
"P@	c #D87B43",
"Q@	c #B96D3B",
"R@	c #95552E",
"S@	c #C2582E",
"T@	c #DE592D",
"U@	c #D85C2F",
"V@	c #944523",
"W@	c #3A1A0D",
"X@	c #72381D",
"Y@	c #BF522A",
"Z@	c #DB5A2D",
"`@	c #DD5A2C",
" #	c #DB5429",
".#	c #481F0F",
"+#	c #1E1209",
"@#	c #7A4626",
"##	c #A45B32",
"$#	c #A3562E",
"%#	c #984524",
"&#	c #703119",
"*#	c #30190D",
"=#	c #311E11",
"-#	c #684728",
";#	c #6B4B2A",
">#	c #4D321B",
",#	c #532F19",
"'#	c #79391D",
")#	c #D0532A",
"!#	c #994424",
"~#	c #100905",
"{#	c #88502C",
"]#	c #C1703D",
"^#	c #D88B4D",
"/#	c #D79151",
"(#	c #D48147",
"_#	c #CB6E3B",
":#	c #C35C30",
"<#	c #B04925",
"[#	c #572714",
"}#	c #6B4224",
"|#	c #A45D33",
"1#	c #C76C3A",
"2#	c #DA7B43",
"3#	c #CB6B3A",
"4#	c #944E29",
"5#	c #4A2514",
"6#	c #110804",
"7#	c #90552F",
"8#	c #A65E32",
"9#	c #C46737",
"0#	c #D06737",
"a#	c #542D18",
"b#	c #1C120A",
"c#	c #53311B",
"d#	c #5B2C18",
"e#	c #4B2514",
"                                                                ",
"                                                                ",
"                                                                ",
"                                      .                         ",
"                              + @ # $ % & * = -                 ",
"                        ; + > , ' ) ! ~ { ] ' ^ / (             ",
"                      _ : < [ } | 1 2 3 4 5 6 7 8 9 0           ",
"                    a b c d e f g h i j k l m n o p a q         ",
"                r s t u v w x y z A B C D E F G H I J K L       ",
"              M N O P Q R S T U V W X Y Z `  ...+.@.#.$.%.      ",
"          &.*.=.-.;.>.,.'.).*.!.~.{.].^./.(._.:.<.[.}.|.1.      ",
"          0 ' 2.3.4.5.6.7.8.9.0.a.b.c.d.e.c.f.g.h.i.j.k.l.      ",
"        m.n.o.p.q.r.s.t.*.f.u.v.w.x.y.z.A.B.C.D.E.F.G.H.        ",
"        I.J.K.L.M.p N.O.P.Q.R.S.T.A.U.V.W.X.Y.Z.`. +.+++        ",
"        @+#+$+  %+&+*+[ v._ =+B.-+I ;+>+,+'+)+!+~+{+]+          ",
"        ^+      %./+(+_+:+<+[+}+|+1+2+3+4+5+6+7+8+9+0+a+        ",
"              b+c+d+e+f+g+h+i+j+k+l+m+n+o+p+q+r+s+t+u+v+w+      ",
"            * d x+d.y+z+A+B+C+R D+E+F+G+H+I+J+K+L+M+N+O+P+      ",
"          :+9.Q+:.R+C+C+x.D.S+T+U+V+W+X+Y+Z+`+ @.@+@@@#@        ",
"      $@%@&@) *@=@-@;@>@,@'@)@!@~@{@]@^@/@(@_@:@<@[@            ",
"    }@|@x+1@2@3@4@5@6@7@8@9@0@a@b@c@d@e@f@g@                    ",
"  h@b.i@j@k@l@m@n@o@p@q@r@ @s@t@u@v@w@                          ",
"  x@y@z@'@A@B@C@D@E@F@G@H@I@J@K@L@M@N@                          ",
"    O@P@Q@R@S@T@U@V@W@X@Y@Z@`@ #.#                              ",
"    +#@###$#%#&#*#=#-#;#>#,#'#)#!#                              ",
"            ~##@{#]#^#/#(#_#:#<#[#                              ",
"              }#|#1#)@2#3#4#5#6#                                ",
"              h@7#8#9#0#a#                                      ",
"                b#c#d#e#                                        ",
"                                                                ",
"                                                                ",
"                                                                "};
