/* XPM */
static char * trackballs_16x16_xpm[] = {
"16 16 130 2",
"  	c None",
". 	c #A52628",
"+ 	c #A72728",
"@ 	c #A22627",
"# 	c #982325",
"$ 	c #861F20",
"% 	c #6F181A",
"& 	c #B52A2C",
"* 	c #BE2D2F",
"= 	c #BA2B2C",
"- 	c #B1282A",
"; 	c #A22426",
"> 	c #8D1F20",
", 	c #6D1718",
"' 	c #B82B2D",
") 	c #C62F30",
"! 	c #CB3032",
"~ 	c #CB2F31",
"{ 	c #C62D2F",
"] 	c #BE2A2C",
"^ 	c #B02628",
"/ 	c #9E2224",
"( 	c #841C1D",
"_ 	c #5F1313",
": 	c #AE282A",
"< 	c #C32E30",
"[ 	c #CD3032",
"} 	c #D23133",
"| 	c #D23032",
"1 	c #CD2E30",
"2 	c #C32B2D",
"3 	c #B62728",
"4 	c #A52224",
"5 	c #8E1D1E",
"6 	c #6F1616",
"7 	c #440C0D",
"8 	c #B32A2B",
"9 	c #C62F31",
"0 	c #D03133",
"a 	c #D9383A",
"b 	c #ED686A",
"c 	c #CF3032",
"d 	c #C42A2C",
"e 	c #B72628",
"f 	c #A62224",
"g 	c #911D1E",
"h 	c #741617",
"i 	c #4E0E0E",
"j 	c #B12A2C",
"k 	c #CD2F31",
"l 	c #D33234",
"m 	c #DD4648",
"n 	c #CA2C2E",
"o 	c #C0282A",
"p 	c #B42527",
"q 	c #A32122",
"r 	c #8E1C1D",
"s 	c #721516",
"t 	c #510D0E",
"u 	c #2E0707",
"v 	c #A92829",
"w 	c #BC2B2D",
"x 	c #C62C2E",
"y 	c #C82B2D",
"z 	c #C2292B",
"A 	c #B92728",
"B 	c #AC2324",
"C 	c #9C1E20",
"D 	c #87191A",
"E 	c #6C1314",
"F 	c #4F0C0D",
"G 	c #2F0707",
"H 	c #9A2425",
"I 	c #B0282A",
"J 	c #BB292B",
"K 	c #BE292B",
"L 	c #BD282A",
"M 	c #B82628",
"N 	c #AE2425",
"O 	c #A82224",
"P 	c #941C1E",
"Q 	c #7C1617",
"R 	c #601010",
"S 	c #4D0C0C",
"T 	c #280606",
"U 	c #851E20",
"V 	c #9F2425",
"W 	c #AB2527",
"X 	c #AF2527",
"Y 	c #AE2426",
"Z 	c #A02021",
"` 	c #961D1E",
" .	c #831819",
"..	c #6C1213",
"+.	c #550C0E",
"@.	c #4A0B0C",
"#.	c #130303",
"$.	c #841D1F",
"%.	c #952021",
"&.	c #9C2022",
"*.	c #9B2021",
"=.	c #961E1F",
"-.	c #8E1B1C",
";.	c #801818",
">.	c #6E1314",
",.	c #590E0E",
"'.	c #500C0D",
").	c #380808",
"!.	c #5C1314",
"~.	c #75191A",
"{.	c #801A1B",
"].	c #821A1A",
"^.	c #7E1819",
"/.	c #751516",
"(.	c #671112",
"_.	c #570D0E",
":.	c #440A0B",
"<.	c #410C0D",
"[.	c #571111",
"}.	c #5E1112",
"|.	c #5C1010",
"1.	c #560E0F",
"2.	c #4B0C0C",
"3.	c #3B0909",
"4.	c #0F0202",
"5.	c #2D0707",
"6.	c #360809",
"7.	c #380909",
"8.	c #300808",
"9.	c #1B0404",
"                                ",
"                                ",
"          . + @ # $ %           ",
"        & * * = - ; > ,         ",
"      ' ) ! ~ { ] ^ / ( _       ",
"    : < [ } | 1 2 3 4 5 6 7     ",
"    8 9 0 a b c d e f g h i     ",
"    j < k l m n o p q r s t u   ",
"    v w x n y z A B C D E F G   ",
"    H I J K L M N O P Q R S T   ",
"    U V W X Y O Z `  ...+.@.#.  ",
"      $.%.&.*.=.-.;.>.,.'.).    ",
"      !.~.{.].^./.(._.'.:.      ",
"        <.[.}.|.1.F 2.3.4.      ",
"            5.6.7.8.9.          ",
"                                "};
