/* XPM */
static char * wine_32x32_xpm[] = {
"32 32 101 2",
"  	c None",
". 	c #040404",
"+ 	c #000000",
"@ 	c #0A0A0A",
"# 	c #070707",
"$ 	c #0B0B0B",
"% 	c #0E0E0E",
"& 	c #0D0D0D",
"* 	c #0F0F0F",
"= 	c #101010",
"- 	c #111111",
"; 	c #020202",
"> 	c #191718",
", 	c #0F0A0C",
"' 	c #1A1A1A",
") 	c #1A0D11",
"! 	c #380113",
"~ 	c #160D10",
"{ 	c #0A0204",
"] 	c #0D0104",
"^ 	c #0C090A",
"/ 	c #121212",
"( 	c #2E0210",
"_ 	c #9C0030",
": 	c #7E0028",
"< 	c #690021",
"[ 	c #6E0024",
"} 	c #7D0028",
"| 	c #82002A",
"1 	c #6B0020",
"2 	c #2C0913",
"3 	c #0C0C0C",
"4 	c #55001B",
"5 	c #AB0036",
"6 	c #AF0038",
"7 	c #AF0037",
"8 	c #AE0037",
"9 	c #B00038",
"0 	c #B00036",
"a 	c #690020",
"b 	c #0D0004",
"c 	c #4F0119",
"d 	c #95002E",
"e 	c #B00037",
"f 	c #B00039",
"g 	c #AE0038",
"h 	c #B10038",
"i 	c #53001A",
"j 	c #320211",
"k 	c #A70034",
"l 	c #AF0039",
"m 	c #A00032",
"n 	c #29000D",
"o 	c #420518",
"p 	c #AD0037",
"q 	c #770026",
"r 	c #070103",
"s 	c #4F001A",
"t 	c #3E0013",
"u 	c #62001F",
"v 	c #7D0027",
"w 	c #100106",
"x 	c #67001F",
"y 	c #B20038",
"z 	c #B30038",
"A 	c #3A0013",
"B 	c #040202",
"C 	c #60001E",
"D 	c #AE0039",
"E 	c #AC0036",
"F 	c #6C0021",
"G 	c #060203",
"H 	c #4D011A",
"I 	c #7E0129",
"J 	c #1C010A",
"K 	c #131313",
"L 	c #22020D",
"M 	c #8E002D",
"N 	c #A40034",
"O 	c #7E0128",
"P 	c #21030D",
"Q 	c #050304",
"R 	c #0B0709",
"S 	c #2D000F",
"T 	c #56021C",
"U 	c #430015",
"V 	c #1E040C",
"W 	c #0A0808",
"X 	c #0C0A0A",
"Y 	c #1B1B1B",
"Z 	c #010101",
"` 	c #1E1E1E",
" .	c #050505",
"..	c #1C1C1C",
"+.	c #141414",
"@.	c #151515",
"#.	c #060606",
"$.	c #191919",
"%.	c #212121",
"&.	c #030303",
"*.	c #090909",
"                                  . + @                         ",
"                                #         $ @                   ",
"                                +             % &               ",
"                              @ *               =               ",
"                              &                 -               ",
"                              &                 ;               ",
"                            > ,               ' -               ",
"                            ) ! ~ = % { ] ^   # /               ",
"                          # ( _ : < [ } | 1 2 ^                 ",
"                          3 4 5 6 7 8 9 9 0 a b                 ",
"                          c d e f 6 9 g h e i                   ",
"                          j k h l h 9 h 9 m n                   ",
"                          o p 9 f 9 9 9 8 q r                   ",
"                          s 9 h l 9 6 6 k t +                   ",
"                          u h 9 l 6 9 h v w                     ",
"                          x y 9 f 9 6 z A B                     ",
"                          C y h D h E F G                       ",
"                          H 9 h f z I J K                       ",
"                          L M E N O P Q                         ",
"                          R S T U V W                           ",
"                          X + + +                               ",
"                          Y + Z                                 ",
"                          `  .                                  ",
"                          ..+.                                  ",
"                          *                                     ",
"                          @.                                    ",
"                        #.$.                                    ",
"            %.% + #.* . &.$.                                    ",
"                *.&.+ + . $.                                    ",
"                    3 + ; #.+ #                                 ",
"                        # . &.&..                               ",
"                                ..@.                            "};
