/* XPM */
static char *devel_16x16[] = {
/* columns rows colors chars-per-pixel */
"16 16 70 1",
"  c #696869",
". c #717072",
"X c #60739a",
"o c #7b7f87",
"O c #4e87f3",
"+ c #7a99dc",
"@ c #758ced",
"# c #759be2",
"$ c #7da5e7",
"% c #79a8ff",
"& c #836d7a",
"* c #877981",
"= c #947389",
"- c #9c7f90",
"; c #a56d8b",
": c #ba78bf",
"> c #808382",
", c #94979f",
"< c #8e97b0",
"1 c #9398a2",
"2 c #99ba93",
"3 c #9ca0a8",
"4 c #b7849f",
"5 c #b094a2",
"6 c #a7a9a8",
"7 c #aebaac",
"8 c #b8a0b2",
"9 c #b7b3ab",
"0 c #bbbbba",
"q c #92aade",
"w c #9cb1df",
"e c #84a5e9",
"r c #85a8f0",
"t c #8bb1ff",
"y c #92a0ef",
"u c #99bbfc",
"i c #a8b2c6",
"p c #a6b5d4",
"a c #b1b6c2",
"s c #a4bbea",
"d c #a1c49b",
"f c #aac9a5",
"g c #b0c8ab",
"h c #bdc0be",
"j c #bed6b9",
"k c #a8c5fe",
"l c #b8cbfb",
"z c #c2bfba",
"x c #e495bf",
"c c #c893cd",
"v c #da92c5",
"b c #e7acce",
"n c #f0b7dc",
"m c #c1c0be",
"M c #c7dbbe",
"N c #c3c4c3",
"B c #d1dccf",
"V c #d4dbd1",
"C c #c4dafe",
"Z c #d9caec",
"A c #cfe0c9",
"S c #d6e3fd",
"D c #e1c7ee",
"F c #efdce6",
"G c #f9cde7",
"H c #f4d6e8",
"J c #e9f2e8",
"K c #e9f0fd",
"L c #fee3f5",
"P c None",
/* pixels */
"0000000722d00000",
"00000002fjAf2000",
"0000007ffdAjd0az",
"0000000gfgfJB000",
"00000000AAMVh000",
"00000000w+ki0000",
"0000000zet+1h000",
"00000aziO%X90000",
"00000z0+%$om0000",
"000z0psukq1m0000",
"00zaetulCCs3z000",
"00a#%ulCSSC<9h00",
"008@yclZKKD=7z00",
"0a5:xxbbHL4&Na00",
"009;xnGLF1.00z00",
"0006&=,* >m00a00"
};
