/* XPM */
static char *editors_16x16[] = {
/* columns rows colors chars-per-pixel */
"16 16 27 1",
"  c #2b2b2b",
". c #3c3c3c",
"X c #444444",
"o c #575757",
"O c #666666",
"+ c #787878",
"@ c #d6a55c",
"# c #c9a775",
"$ c #daab65",
"% c #deb16e",
"& c #dfb473",
"* c #858585",
"= c #989898",
"- c #a5a5a5",
"; c #bababa",
": c #c6ac85",
"> c #c5bcad",
", c #e4bc81",
"< c #c8c1b6",
"1 c #d8c7ab",
"2 c #d2c5b0",
"3 c #e9d6b8",
"4 c #c6c6c6",
"5 c #d8d8d8",
"6 c #e9e9e9",
"7 c #f1f1f1",
"8 c None",
/* pixels */
";;;;;;;;;;;;;;;;",
";;;;;;;;;;;;;;;;",
";;;;;;;;;;;;;;<<",
";;;;;;;;4;;;;2&#",
"+-++Oo=-;;;>2%#;",
"+4;;4675;;;1%#;;",
";o6777665;1$:;;;",
";=O7777663@:;;;;",
";;O=77665,>-<;;;",
";;;.4744-;65;;;;",
";;;=X54565654*;;",
";;;;o+44;=OXXX-;",
";;;;- . .O*-;;;;",
";;;;;--;;>;;;;;;",
";;;;;;;;;;;;;;;;",
";;;;;;;;;;;;;;;;"
};
