/* XPM */
static char *entert_16x16[] = {
/* columns rows colors chars-per-pixel */
"16 16 114 2",
"   c #080001",
".  c #1d2419",
"X  c #072139",
"o  c #391b15",
"O  c #2f3c25",
"+  c #3a4924",
"@  c #3a4630",
"#  c #385a32",
"$  c #1d4b5b",
"%  c #3a546d",
"&  c #70241c",
"*  c #495c3b",
"=  c #51693e",
"-  c #474647",
";  c #545c4e",
":  c #555754",
">  c #536742",
",  c #5f7d43",
"<  c #6f4b42",
"1  c #636f58",
"2  c #666765",
"3  c #797a77",
"4  c #1e5c8b",
"5  c #5c892c",
"6  c #6d845a",
"7  c #6c9946",
"8  c #71904f",
"9  c #799e5b",
"0  c #7d8377",
"q  c #7ea95a",
"w  c #3996ca",
"e  c #6f9d8a",
"r  c #53aadf",
"t  c #4dafea",
"y  c #66a1ce",
"u  c #69add7",
"i  c #7eb7da",
"p  c #61b0e0",
"a  c #70b9e4",
"s  c #7fc5f1",
"d  c #914837",
"f  c #9c6255",
"g  c #9b736a",
"h  c #977d77",
"j  c #bb6c5a",
"k  c #af6f61",
"l  c #a47368",
"z  c #cb3e1c",
"x  c #d15032",
"c  c #cf745f",
"v  c #d57560",
"b  c #e47c66",
"n  c #85a855",
"m  c #85aa66",
"M  c #8fba6a",
"N  c #97b87b",
"B  c #8eca5c",
"V  c #96c16d",
"C  c #9cc57a",
"Z  c #98d069",
"A  c #9dea5f",
"S  c #a1cc79",
"D  c #c68273",
"F  c #d38270",
"G  c #e98a75",
"H  c #8d8d8d",
"J  c #858f95",
"K  c #999799",
"L  c #9f9ba2",
"P  c #94a586",
"I  c #95acba",
"U  c #96bbb9",
"Y  c #a19ea4",
"T  c #a6a09f",
"R  c #a5a4a7",
"E  c #acb1b3",
"W  c #b1aeac",
"Q  c #b1aeb4",
"!  c #bababa",
"~  c #81b3d1",
"^  c #92b2c6",
"/  c #96bdd5",
"(  c #84bde3",
")  c #a4b7c2",
"_  c #b0df8a",
"`  c #b8e692",
"'  c #8ac3e6",
"]  c #91c9eb",
"[  c #96d2f6",
"{  c #a9c1d2",
"}  c #bdc1c2",
"|  c #b7cfdd",
" . c #adcfe4",
".. c #aadefd",
"X. c #b7d2e9",
"o. c #ce978b",
"O. c #c0a9a4",
"+. c #c9b1ab",
"@. c #c4bbb8",
"#. c #d0aea7",
"$. c #d4bfba",
"%. c #ed9886",
"&. c #f29c89",
"*. c #efab9c",
"=. c #f5a897",
"-. c #eaaea1",
";. c #eeb0a3",
":. c #c0c0bf",
">. c #c0ff89",
",. c #c3f699",
"<. c #f8c5ba",
"1. c #c4c4c4",
"2. c #f6d3cc",
"3. c None",
/* pixels */
"! ! O.F o.! } ! ! ! ! ! @.@.! ! ",
"! ! v b G #.! ! ! ! ! ) u ~ ! ! ",
"} T c =.;.$.! ! ! ! ! r t s ^ ! ",
"! ! h D b +.! ! ! } ! p s ..I W ",
"! ! ! H j &.$.! ! ! ! s i I Y :.",
"! ! @.E k &.;.:.! ! ' ] J W ! ! ",
"! ! @.! l %.-.<.1.a [  .R 1.! ! ",
"! ! ! ) g G *.<.2.X...| T :.! ! ",
"! ! @.) D G o.l f < / { R ! Q ! ",
"@.! ! } H d d x z o ( U 8 q q 0 ",
"! ! ! 1.J   & & % w y e 5 A 7 L ",
"! ! 1.R P q O # $ 4 X . Z B 2 1.",
"1.1.K N M > S V + n + , >.= L :.",
"R : m 9 > ` C * ,._ > ,.m : 1.! ",
"Y h 3 - 1 6 . 6 C O m ,.@ K 1.! ",
":.1.) 1.Q Y K 3 2 - ; + : 1.! ! "
};
