/* XPM */
static char *utils_32x32[] = {
/* columns rows colors chars-per-pixel */
"32 32 17 1",
"  c #090909",
". c #191919",
"X c #292929",
"o c #393939",
"O c #474747",
"+ c #585858",
"@ c #686868",
"# c #787878",
"$ c #878787",
"% c #979797",
"& c #a7a7a7",
"* c #bababa",
"= c #c4c4c4",
"- c #d6d6d6",
"; c #e7e7e7",
": c #f0f0f0",
"> c None",
/* pixels */
"********************************",
"********************=***********",
"**************@+@#$%%&==********",
"************=$OOooXXXo+@%*=*****",
"************&@@+OOOX.X.XXo@&=***",
"************$#@OOOoXoooXX..X@***",
"****=$o#$$%%@#+oXoX..XXoXXXX.X$=",
"******@oO+@@#@+OooO%#@+oX....  $",
"***=***&#O+#$@++Oo%-=****&$#+Ooo",
"**&%%%%%%%$#@@XXOO*****=**=*=-*&",
"**@OoOOO+@####++O$=*************",
"****&%$@@#$$@+++O***************",
"****===-&#$$+XO+#=**************",
"*******&$$$$$$#O$***************",
"*******&$$$$$$@O+##$%%&**==*****",
"*******%$$%$$$@o##@@@+@@@#$%****",
"******&$$%%%%$O+###@@@@@++OoO&**",
"******&$%&%%%@O#%$$$#@@@+X..+&**",
"******$$&&&%%o.O+OOOOoX..o+&=***",
"*****&#&*&&&#@$+OOOOO+@$&*=*****",
"*****$%**&&&@*-*=*==*====*******",
"***-&#&**&*%#=******************",
"***-$%-****@&*******************",
"**-&#*==**&$********************",
"*==#%--=*=%%=*******************",
"*;-%=----*#************=******=*",
"oO&;:----%%=********************",
"#X X$-;--$**********************",
"=*%O  @=*%****************=*****",
"***=&@. O********=**************",
"****==*@#=*=********************",
"*******==***********************"
};
